%FSLAX45Y45*%
G04 Gerber Fmt 4.5, Leading zero omitted, Abs format (unit mm)*
G04 Created by KiCad (PCBNEW (5.1.10)-1) date 2021-11-15 09:06:40*
%MOMM*%
%LPD*%
G01*
G04 APERTURE LIST*
%TA.AperFunction,Profile*%
%ADD10C,0.100000*%
%TD*%
%ADD11C,0.200000*%
%ADD12C,0.300000*%
G04 APERTURE END LIST*
D10*
X50000Y9650000D02*
X50000Y350000D01*
X50000Y9650000D02*
G75*
G02*
X350000Y9950000I300000J0D01*
G01*
X6450000Y9950000D02*
G75*
G02*
X6750000Y9650000I0J-300000D01*
G01*
X6750000Y350000D02*
X6750000Y9650000D01*
X350000Y50000D02*
G75*
G02*
X50000Y350000I0J300000D01*
G01*
X6750000Y350000D02*
G75*
G02*
X6450000Y50000I-300000J0D01*
G01*
X350000Y9950000D02*
X6450000Y9950000D01*
X6450000Y50000D02*
X350000Y50000D01*
D11*
X1325000Y3725000D02*
X1375000Y3675000D01*
X1375000Y3725000D02*
X1325000Y3675000D01*
X1325000Y3475000D02*
X1375000Y3425000D01*
X1375000Y3475000D02*
X1325000Y3425000D01*
X3125000Y4325000D02*
X3175000Y4275000D01*
X3175000Y4325000D02*
X3125000Y4275000D01*
X1400000Y8950000D02*
G75*
G03*
X1400000Y8950000I-50000J0D01*
G01*
X1400000Y8696000D02*
G75*
G03*
X1400000Y8696000I-50000J0D01*
G01*
X1400000Y8442000D02*
G75*
G03*
X1400000Y8442000I-50000J0D01*
G01*
X1400000Y8188000D02*
G75*
G03*
X1400000Y8188000I-50000J0D01*
G01*
X1400000Y7934000D02*
G75*
G03*
X1400000Y7934000I-50000J0D01*
G01*
X1400000Y7680000D02*
G75*
G03*
X1400000Y7680000I-50000J0D01*
G01*
X1400000Y7426000D02*
G75*
G03*
X1400000Y7426000I-50000J0D01*
G01*
X1400000Y7172000D02*
G75*
G03*
X1400000Y7172000I-50000J0D01*
G01*
X1400000Y6918000D02*
G75*
G03*
X1400000Y6918000I-50000J0D01*
G01*
X1400000Y6664000D02*
G75*
G03*
X1400000Y6664000I-50000J0D01*
G01*
X1400000Y6410000D02*
G75*
G03*
X1400000Y6410000I-50000J0D01*
G01*
X1400000Y6156000D02*
G75*
G03*
X1400000Y6156000I-50000J0D01*
G01*
X1400000Y5902000D02*
G75*
G03*
X1400000Y5902000I-50000J0D01*
G01*
X1400000Y5648000D02*
G75*
G03*
X1400000Y5648000I-50000J0D01*
G01*
X1400000Y5394000D02*
G75*
G03*
X1400000Y5394000I-50000J0D01*
G01*
X1400000Y5140000D02*
G75*
G03*
X1400000Y5140000I-50000J0D01*
G01*
X1680000Y1068000D02*
G75*
G03*
X1680000Y1068000I-50000J0D01*
G01*
X1934000Y1068000D02*
G75*
G03*
X1934000Y1068000I-50000J0D01*
G01*
X2188000Y1068000D02*
G75*
G03*
X2188000Y1068000I-50000J0D01*
G01*
X2442000Y1068000D02*
G75*
G03*
X2442000Y1068000I-50000J0D01*
G01*
X2600000Y8950000D02*
G75*
G03*
X2600000Y8950000I-50000J0D01*
G01*
X2600000Y8696000D02*
G75*
G03*
X2600000Y8696000I-50000J0D01*
G01*
X2600000Y8442000D02*
G75*
G03*
X2600000Y8442000I-50000J0D01*
G01*
X2600000Y8188000D02*
G75*
G03*
X2600000Y8188000I-50000J0D01*
G01*
X2600000Y7934000D02*
G75*
G03*
X2600000Y7934000I-50000J0D01*
G01*
X2600000Y7680000D02*
G75*
G03*
X2600000Y7680000I-50000J0D01*
G01*
X2600000Y7426000D02*
G75*
G03*
X2600000Y7426000I-50000J0D01*
G01*
X2600000Y7172000D02*
G75*
G03*
X2600000Y7172000I-50000J0D01*
G01*
X2600000Y6918000D02*
G75*
G03*
X2600000Y6918000I-50000J0D01*
G01*
X2600000Y6664000D02*
G75*
G03*
X2600000Y6664000I-50000J0D01*
G01*
X2600000Y6410000D02*
G75*
G03*
X2600000Y6410000I-50000J0D01*
G01*
X2600000Y6156000D02*
G75*
G03*
X2600000Y6156000I-50000J0D01*
G01*
X2600000Y5902000D02*
G75*
G03*
X2600000Y5902000I-50000J0D01*
G01*
X2600000Y5648000D02*
G75*
G03*
X2600000Y5648000I-50000J0D01*
G01*
X2600000Y5394000D02*
G75*
G03*
X2600000Y5394000I-50000J0D01*
G01*
X2600000Y5140000D02*
G75*
G03*
X2600000Y5140000I-50000J0D01*
G01*
X2600000Y4886000D02*
G75*
G03*
X2600000Y4886000I-50000J0D01*
G01*
X2600000Y4632000D02*
G75*
G03*
X2600000Y4632000I-50000J0D01*
G01*
X2600000Y4378000D02*
G75*
G03*
X2600000Y4378000I-50000J0D01*
G01*
X2600000Y4124000D02*
G75*
G03*
X2600000Y4124000I-50000J0D01*
G01*
X2696000Y1068000D02*
G75*
G03*
X2696000Y1068000I-50000J0D01*
G01*
X2700000Y3100000D02*
G75*
G03*
X2700000Y3100000I-50000J0D01*
G01*
X2950000Y1068000D02*
G75*
G03*
X2950000Y1068000I-50000J0D01*
G01*
X2954000Y3100000D02*
G75*
G03*
X2954000Y3100000I-50000J0D01*
G01*
X3204000Y1068000D02*
G75*
G03*
X3204000Y1068000I-50000J0D01*
G01*
X3208000Y3100000D02*
G75*
G03*
X3208000Y3100000I-50000J0D01*
G01*
X3458000Y1068000D02*
G75*
G03*
X3458000Y1068000I-50000J0D01*
G01*
X3462000Y3100000D02*
G75*
G03*
X3462000Y3100000I-50000J0D01*
G01*
X3712000Y1068000D02*
G75*
G03*
X3712000Y1068000I-50000J0D01*
G01*
X3716000Y3100000D02*
G75*
G03*
X3716000Y3100000I-50000J0D01*
G01*
X3966000Y1068000D02*
G75*
G03*
X3966000Y1068000I-50000J0D01*
G01*
X3970000Y3100000D02*
G75*
G03*
X3970000Y3100000I-50000J0D01*
G01*
X4220000Y1068000D02*
G75*
G03*
X4220000Y1068000I-50000J0D01*
G01*
X4224000Y3100000D02*
G75*
G03*
X4224000Y3100000I-50000J0D01*
G01*
X4378000Y8950000D02*
G75*
G03*
X4378000Y8950000I-50000J0D01*
G01*
X4378000Y8696000D02*
G75*
G03*
X4378000Y8696000I-50000J0D01*
G01*
X4378000Y8442000D02*
G75*
G03*
X4378000Y8442000I-50000J0D01*
G01*
X4378000Y8188000D02*
G75*
G03*
X4378000Y8188000I-50000J0D01*
G01*
X4378000Y7934000D02*
G75*
G03*
X4378000Y7934000I-50000J0D01*
G01*
X4378000Y7680000D02*
G75*
G03*
X4378000Y7680000I-50000J0D01*
G01*
X4378000Y7426000D02*
G75*
G03*
X4378000Y7426000I-50000J0D01*
G01*
X4378000Y7172000D02*
G75*
G03*
X4378000Y7172000I-50000J0D01*
G01*
X4378000Y6918000D02*
G75*
G03*
X4378000Y6918000I-50000J0D01*
G01*
X4378000Y6664000D02*
G75*
G03*
X4378000Y6664000I-50000J0D01*
G01*
X4378000Y6410000D02*
G75*
G03*
X4378000Y6410000I-50000J0D01*
G01*
X4378000Y6156000D02*
G75*
G03*
X4378000Y6156000I-50000J0D01*
G01*
X4378000Y5902000D02*
G75*
G03*
X4378000Y5902000I-50000J0D01*
G01*
X4378000Y5648000D02*
G75*
G03*
X4378000Y5648000I-50000J0D01*
G01*
X4378000Y5394000D02*
G75*
G03*
X4378000Y5394000I-50000J0D01*
G01*
X4378000Y5140000D02*
G75*
G03*
X4378000Y5140000I-50000J0D01*
G01*
X4378000Y4886000D02*
G75*
G03*
X4378000Y4886000I-50000J0D01*
G01*
X4378000Y4632000D02*
G75*
G03*
X4378000Y4632000I-50000J0D01*
G01*
X4378000Y4378000D02*
G75*
G03*
X4378000Y4378000I-50000J0D01*
G01*
X4378000Y4124000D02*
G75*
G03*
X4378000Y4124000I-50000J0D01*
G01*
X4474000Y1068000D02*
G75*
G03*
X4474000Y1068000I-50000J0D01*
G01*
X4478000Y3100000D02*
G75*
G03*
X4478000Y3100000I-50000J0D01*
G01*
X4728000Y1068000D02*
G75*
G03*
X4728000Y1068000I-50000J0D01*
G01*
X4732000Y3100000D02*
G75*
G03*
X4732000Y3100000I-50000J0D01*
G01*
X4982000Y1068000D02*
G75*
G03*
X4982000Y1068000I-50000J0D01*
G01*
X4986000Y3100000D02*
G75*
G03*
X4986000Y3100000I-50000J0D01*
G01*
X5236000Y1068000D02*
G75*
G03*
X5236000Y1068000I-50000J0D01*
G01*
X5240000Y3100000D02*
G75*
G03*
X5240000Y3100000I-50000J0D01*
G01*
X5490000Y1068000D02*
G75*
G03*
X5490000Y1068000I-50000J0D01*
G01*
X5494000Y3100000D02*
G75*
G03*
X5494000Y3100000I-50000J0D01*
G01*
X5578000Y8950000D02*
G75*
G03*
X5578000Y8950000I-50000J0D01*
G01*
X5578000Y8696000D02*
G75*
G03*
X5578000Y8696000I-50000J0D01*
G01*
X5578000Y8442000D02*
G75*
G03*
X5578000Y8442000I-50000J0D01*
G01*
X5578000Y8188000D02*
G75*
G03*
X5578000Y8188000I-50000J0D01*
G01*
X5578000Y7934000D02*
G75*
G03*
X5578000Y7934000I-50000J0D01*
G01*
X5578000Y7680000D02*
G75*
G03*
X5578000Y7680000I-50000J0D01*
G01*
X5578000Y7426000D02*
G75*
G03*
X5578000Y7426000I-50000J0D01*
G01*
X5578000Y7172000D02*
G75*
G03*
X5578000Y7172000I-50000J0D01*
G01*
X5578000Y6918000D02*
G75*
G03*
X5578000Y6918000I-50000J0D01*
G01*
X5578000Y6664000D02*
G75*
G03*
X5578000Y6664000I-50000J0D01*
G01*
X5578000Y6410000D02*
G75*
G03*
X5578000Y6410000I-50000J0D01*
G01*
X5578000Y6156000D02*
G75*
G03*
X5578000Y6156000I-50000J0D01*
G01*
X5578000Y5902000D02*
G75*
G03*
X5578000Y5902000I-50000J0D01*
G01*
X5578000Y5648000D02*
G75*
G03*
X5578000Y5648000I-50000J0D01*
G01*
X5578000Y5394000D02*
G75*
G03*
X5578000Y5394000I-50000J0D01*
G01*
X5578000Y5140000D02*
G75*
G03*
X5578000Y5140000I-50000J0D01*
G01*
D12*
X331428Y-420714D02*
X331428Y-120714D01*
X402857Y-120714D01*
X445714Y-135000D01*
X474286Y-163572D01*
X488571Y-192143D01*
X502857Y-249286D01*
X502857Y-292143D01*
X488571Y-349286D01*
X474286Y-377857D01*
X445714Y-406429D01*
X402857Y-420714D01*
X331428Y-420714D01*
X631428Y-420714D02*
X631428Y-220714D01*
X631428Y-277857D02*
X645714Y-249286D01*
X660000Y-235000D01*
X688571Y-220714D01*
X717143Y-220714D01*
X817143Y-420714D02*
X817143Y-220714D01*
X817143Y-120714D02*
X802857Y-135000D01*
X817143Y-149286D01*
X831428Y-135000D01*
X817143Y-120714D01*
X817143Y-149286D01*
X1002857Y-420714D02*
X974286Y-406429D01*
X960000Y-377857D01*
X960000Y-120714D01*
X1160000Y-420714D02*
X1131428Y-406429D01*
X1117143Y-377857D01*
X1117143Y-120714D01*
X1502857Y-420714D02*
X1502857Y-120714D01*
X1602857Y-335000D01*
X1702857Y-120714D01*
X1702857Y-420714D01*
X1974286Y-420714D02*
X1974286Y-263572D01*
X1960000Y-235000D01*
X1931428Y-220714D01*
X1874286Y-220714D01*
X1845714Y-235000D01*
X1974286Y-406429D02*
X1945714Y-420714D01*
X1874286Y-420714D01*
X1845714Y-406429D01*
X1831428Y-377857D01*
X1831428Y-349286D01*
X1845714Y-320714D01*
X1874286Y-306429D01*
X1945714Y-306429D01*
X1974286Y-292143D01*
X2117143Y-220714D02*
X2117143Y-520714D01*
X2117143Y-235000D02*
X2145714Y-220714D01*
X2202857Y-220714D01*
X2231428Y-235000D01*
X2245714Y-249286D01*
X2260000Y-277857D01*
X2260000Y-363571D01*
X2245714Y-392143D01*
X2231428Y-406429D01*
X2202857Y-420714D01*
X2145714Y-420714D01*
X2117143Y-406429D01*
X2388571Y-392143D02*
X2402857Y-406429D01*
X2388571Y-420714D01*
X2374286Y-406429D01*
X2388571Y-392143D01*
X2388571Y-420714D01*
X2388571Y-235000D02*
X2402857Y-249286D01*
X2388571Y-263572D01*
X2374286Y-249286D01*
X2388571Y-235000D01*
X2388571Y-263572D01*
X-5000Y-890000D02*
X45000Y-940000D01*
X45000Y-890000D02*
X-5000Y-940000D01*
X388571Y-750714D02*
X417143Y-750714D01*
X445714Y-765000D01*
X460000Y-779286D01*
X474286Y-807857D01*
X488571Y-865000D01*
X488571Y-936429D01*
X474286Y-993571D01*
X460000Y-1022143D01*
X445714Y-1036429D01*
X417143Y-1050714D01*
X388571Y-1050714D01*
X360000Y-1036429D01*
X345714Y-1022143D01*
X331428Y-993571D01*
X317143Y-936429D01*
X317143Y-865000D01*
X331428Y-807857D01*
X345714Y-779286D01*
X360000Y-765000D01*
X388571Y-750714D01*
X617143Y-1022143D02*
X631428Y-1036429D01*
X617143Y-1050714D01*
X602857Y-1036429D01*
X617143Y-1022143D01*
X617143Y-1050714D01*
X902857Y-750714D02*
X760000Y-750714D01*
X745714Y-893571D01*
X760000Y-879286D01*
X788571Y-865000D01*
X860000Y-865000D01*
X888571Y-879286D01*
X902857Y-893571D01*
X917143Y-922143D01*
X917143Y-993571D01*
X902857Y-1022143D01*
X888571Y-1036429D01*
X860000Y-1050714D01*
X788571Y-1050714D01*
X760000Y-1036429D01*
X745714Y-1022143D01*
X1102857Y-750714D02*
X1131428Y-750714D01*
X1160000Y-765000D01*
X1174286Y-779286D01*
X1188571Y-807857D01*
X1202857Y-865000D01*
X1202857Y-936429D01*
X1188571Y-993571D01*
X1174286Y-1022143D01*
X1160000Y-1036429D01*
X1131428Y-1050714D01*
X1102857Y-1050714D01*
X1074286Y-1036429D01*
X1060000Y-1022143D01*
X1045714Y-993571D01*
X1031428Y-936429D01*
X1031428Y-865000D01*
X1045714Y-807857D01*
X1060000Y-779286D01*
X1074286Y-765000D01*
X1102857Y-750714D01*
X1388571Y-750714D02*
X1417143Y-750714D01*
X1445714Y-765000D01*
X1460000Y-779286D01*
X1474286Y-807857D01*
X1488571Y-865000D01*
X1488571Y-936429D01*
X1474286Y-993571D01*
X1460000Y-1022143D01*
X1445714Y-1036429D01*
X1417143Y-1050714D01*
X1388571Y-1050714D01*
X1360000Y-1036429D01*
X1345714Y-1022143D01*
X1331428Y-993571D01*
X1317143Y-936429D01*
X1317143Y-865000D01*
X1331428Y-807857D01*
X1345714Y-779286D01*
X1360000Y-765000D01*
X1388571Y-750714D01*
X1617143Y-1050714D02*
X1617143Y-850714D01*
X1617143Y-879286D02*
X1631428Y-865000D01*
X1660000Y-850714D01*
X1702857Y-850714D01*
X1731428Y-865000D01*
X1745714Y-893571D01*
X1745714Y-1050714D01*
X1745714Y-893571D02*
X1760000Y-865000D01*
X1788571Y-850714D01*
X1831428Y-850714D01*
X1860000Y-865000D01*
X1874286Y-893571D01*
X1874286Y-1050714D01*
X2017143Y-1050714D02*
X2017143Y-850714D01*
X2017143Y-879286D02*
X2031428Y-865000D01*
X2060000Y-850714D01*
X2102857Y-850714D01*
X2131428Y-865000D01*
X2145714Y-893571D01*
X2145714Y-1050714D01*
X2145714Y-893571D02*
X2160000Y-865000D01*
X2188571Y-850714D01*
X2231428Y-850714D01*
X2260000Y-865000D01*
X2274286Y-893571D01*
X2274286Y-1050714D01*
X2860000Y-736429D02*
X2602857Y-1122143D01*
X3245714Y-750714D02*
X3274286Y-750714D01*
X3302857Y-765000D01*
X3317143Y-779286D01*
X3331428Y-807857D01*
X3345714Y-865000D01*
X3345714Y-936429D01*
X3331428Y-993571D01*
X3317143Y-1022143D01*
X3302857Y-1036429D01*
X3274286Y-1050714D01*
X3245714Y-1050714D01*
X3217143Y-1036429D01*
X3202857Y-1022143D01*
X3188571Y-993571D01*
X3174286Y-936429D01*
X3174286Y-865000D01*
X3188571Y-807857D01*
X3202857Y-779286D01*
X3217143Y-765000D01*
X3245714Y-750714D01*
X3474286Y-1022143D02*
X3488571Y-1036429D01*
X3474286Y-1050714D01*
X3460000Y-1036429D01*
X3474286Y-1022143D01*
X3474286Y-1050714D01*
X3674286Y-750714D02*
X3702857Y-750714D01*
X3731428Y-765000D01*
X3745714Y-779286D01*
X3760000Y-807857D01*
X3774286Y-865000D01*
X3774286Y-936429D01*
X3760000Y-993571D01*
X3745714Y-1022143D01*
X3731428Y-1036429D01*
X3702857Y-1050714D01*
X3674286Y-1050714D01*
X3645714Y-1036429D01*
X3631428Y-1022143D01*
X3617143Y-993571D01*
X3602857Y-936429D01*
X3602857Y-865000D01*
X3617143Y-807857D01*
X3631428Y-779286D01*
X3645714Y-765000D01*
X3674286Y-750714D01*
X4060000Y-1050714D02*
X3888571Y-1050714D01*
X3974286Y-1050714D02*
X3974286Y-750714D01*
X3945714Y-793571D01*
X3917143Y-822143D01*
X3888571Y-836429D01*
X4202857Y-1050714D02*
X4260000Y-1050714D01*
X4288571Y-1036429D01*
X4302857Y-1022143D01*
X4331428Y-979286D01*
X4345714Y-922143D01*
X4345714Y-807857D01*
X4331428Y-779286D01*
X4317143Y-765000D01*
X4288571Y-750714D01*
X4231428Y-750714D01*
X4202857Y-765000D01*
X4188571Y-779286D01*
X4174286Y-807857D01*
X4174286Y-879286D01*
X4188571Y-907857D01*
X4202857Y-922143D01*
X4231428Y-936429D01*
X4288571Y-936429D01*
X4317143Y-922143D01*
X4331428Y-907857D01*
X4345714Y-879286D01*
X4445714Y-750714D02*
X4645714Y-750714D01*
X4517143Y-1050714D01*
X4745714Y-750714D02*
X4745714Y-807857D01*
X4860000Y-750714D02*
X4860000Y-807857D01*
X5302857Y-1165000D02*
X5288571Y-1150714D01*
X5260000Y-1107857D01*
X5245714Y-1079286D01*
X5231428Y-1036429D01*
X5217143Y-965000D01*
X5217143Y-907857D01*
X5231428Y-836429D01*
X5245714Y-793571D01*
X5260000Y-765000D01*
X5288571Y-722143D01*
X5302857Y-707857D01*
X5388571Y-750714D02*
X5574286Y-750714D01*
X5474286Y-865000D01*
X5517143Y-865000D01*
X5545714Y-879286D01*
X5560000Y-893571D01*
X5574286Y-922143D01*
X5574286Y-993571D01*
X5560000Y-1022143D01*
X5545714Y-1036429D01*
X5517143Y-1050714D01*
X5431428Y-1050714D01*
X5402857Y-1036429D01*
X5388571Y-1022143D01*
X5931428Y-1050714D02*
X5931428Y-750714D01*
X6060000Y-1050714D02*
X6060000Y-893571D01*
X6045714Y-865000D01*
X6017143Y-850714D01*
X5974286Y-850714D01*
X5945714Y-865000D01*
X5931428Y-879286D01*
X6245714Y-1050714D02*
X6217143Y-1036429D01*
X6202857Y-1022143D01*
X6188571Y-993571D01*
X6188571Y-907857D01*
X6202857Y-879286D01*
X6217143Y-865000D01*
X6245714Y-850714D01*
X6288571Y-850714D01*
X6317143Y-865000D01*
X6331428Y-879286D01*
X6345714Y-907857D01*
X6345714Y-993571D01*
X6331428Y-1022143D01*
X6317143Y-1036429D01*
X6288571Y-1050714D01*
X6245714Y-1050714D01*
X6517143Y-1050714D02*
X6488571Y-1036429D01*
X6474286Y-1007857D01*
X6474286Y-750714D01*
X6745714Y-1036429D02*
X6717143Y-1050714D01*
X6660000Y-1050714D01*
X6631428Y-1036429D01*
X6617143Y-1007857D01*
X6617143Y-893571D01*
X6631428Y-865000D01*
X6660000Y-850714D01*
X6717143Y-850714D01*
X6745714Y-865000D01*
X6760000Y-893571D01*
X6760000Y-922143D01*
X6617143Y-950714D01*
X6874286Y-1036429D02*
X6902857Y-1050714D01*
X6960000Y-1050714D01*
X6988571Y-1036429D01*
X7002857Y-1007857D01*
X7002857Y-993571D01*
X6988571Y-965000D01*
X6960000Y-950714D01*
X6917143Y-950714D01*
X6888571Y-936429D01*
X6874286Y-907857D01*
X6874286Y-893571D01*
X6888571Y-865000D01*
X6917143Y-850714D01*
X6960000Y-850714D01*
X6988571Y-865000D01*
X7102857Y-1165000D02*
X7117143Y-1150714D01*
X7145714Y-1107857D01*
X7160000Y-1079286D01*
X7174286Y-1036429D01*
X7188571Y-965000D01*
X7188571Y-907857D01*
X7174286Y-836429D01*
X7160000Y-793571D01*
X7145714Y-765000D01*
X7117143Y-722143D01*
X7102857Y-707857D01*
X45000Y-1311000D02*
G75*
G03*
X45000Y-1311000I-50000J0D01*
G01*
X488571Y-1446714D02*
X317143Y-1446714D01*
X402857Y-1446714D02*
X402857Y-1146714D01*
X374286Y-1189572D01*
X345714Y-1218143D01*
X317143Y-1232429D01*
X617143Y-1418143D02*
X631428Y-1432429D01*
X617143Y-1446714D01*
X602857Y-1432429D01*
X617143Y-1418143D01*
X617143Y-1446714D01*
X817143Y-1146714D02*
X845714Y-1146714D01*
X874286Y-1161000D01*
X888571Y-1175286D01*
X902857Y-1203857D01*
X917143Y-1261000D01*
X917143Y-1332429D01*
X902857Y-1389572D01*
X888571Y-1418143D01*
X874286Y-1432429D01*
X845714Y-1446714D01*
X817143Y-1446714D01*
X788571Y-1432429D01*
X774286Y-1418143D01*
X760000Y-1389572D01*
X745714Y-1332429D01*
X745714Y-1261000D01*
X760000Y-1203857D01*
X774286Y-1175286D01*
X788571Y-1161000D01*
X817143Y-1146714D01*
X1102857Y-1146714D02*
X1131428Y-1146714D01*
X1160000Y-1161000D01*
X1174286Y-1175286D01*
X1188571Y-1203857D01*
X1202857Y-1261000D01*
X1202857Y-1332429D01*
X1188571Y-1389572D01*
X1174286Y-1418143D01*
X1160000Y-1432429D01*
X1131428Y-1446714D01*
X1102857Y-1446714D01*
X1074286Y-1432429D01*
X1060000Y-1418143D01*
X1045714Y-1389572D01*
X1031428Y-1332429D01*
X1031428Y-1261000D01*
X1045714Y-1203857D01*
X1060000Y-1175286D01*
X1074286Y-1161000D01*
X1102857Y-1146714D01*
X1388571Y-1146714D02*
X1417143Y-1146714D01*
X1445714Y-1161000D01*
X1460000Y-1175286D01*
X1474286Y-1203857D01*
X1488571Y-1261000D01*
X1488571Y-1332429D01*
X1474286Y-1389572D01*
X1460000Y-1418143D01*
X1445714Y-1432429D01*
X1417143Y-1446714D01*
X1388571Y-1446714D01*
X1360000Y-1432429D01*
X1345714Y-1418143D01*
X1331428Y-1389572D01*
X1317143Y-1332429D01*
X1317143Y-1261000D01*
X1331428Y-1203857D01*
X1345714Y-1175286D01*
X1360000Y-1161000D01*
X1388571Y-1146714D01*
X1617143Y-1446714D02*
X1617143Y-1246714D01*
X1617143Y-1275286D02*
X1631428Y-1261000D01*
X1660000Y-1246714D01*
X1702857Y-1246714D01*
X1731428Y-1261000D01*
X1745714Y-1289572D01*
X1745714Y-1446714D01*
X1745714Y-1289572D02*
X1760000Y-1261000D01*
X1788571Y-1246714D01*
X1831428Y-1246714D01*
X1860000Y-1261000D01*
X1874286Y-1289572D01*
X1874286Y-1446714D01*
X2017143Y-1446714D02*
X2017143Y-1246714D01*
X2017143Y-1275286D02*
X2031428Y-1261000D01*
X2060000Y-1246714D01*
X2102857Y-1246714D01*
X2131428Y-1261000D01*
X2145714Y-1289572D01*
X2145714Y-1446714D01*
X2145714Y-1289572D02*
X2160000Y-1261000D01*
X2188571Y-1246714D01*
X2231428Y-1246714D01*
X2260000Y-1261000D01*
X2274286Y-1289572D01*
X2274286Y-1446714D01*
X2860000Y-1132429D02*
X2602857Y-1518143D01*
X3245714Y-1146714D02*
X3274286Y-1146714D01*
X3302857Y-1161000D01*
X3317143Y-1175286D01*
X3331428Y-1203857D01*
X3345714Y-1261000D01*
X3345714Y-1332429D01*
X3331428Y-1389572D01*
X3317143Y-1418143D01*
X3302857Y-1432429D01*
X3274286Y-1446714D01*
X3245714Y-1446714D01*
X3217143Y-1432429D01*
X3202857Y-1418143D01*
X3188571Y-1389572D01*
X3174286Y-1332429D01*
X3174286Y-1261000D01*
X3188571Y-1203857D01*
X3202857Y-1175286D01*
X3217143Y-1161000D01*
X3245714Y-1146714D01*
X3474286Y-1418143D02*
X3488571Y-1432429D01*
X3474286Y-1446714D01*
X3460000Y-1432429D01*
X3474286Y-1418143D01*
X3474286Y-1446714D01*
X3674286Y-1146714D02*
X3702857Y-1146714D01*
X3731428Y-1161000D01*
X3745714Y-1175286D01*
X3760000Y-1203857D01*
X3774286Y-1261000D01*
X3774286Y-1332429D01*
X3760000Y-1389572D01*
X3745714Y-1418143D01*
X3731428Y-1432429D01*
X3702857Y-1446714D01*
X3674286Y-1446714D01*
X3645714Y-1432429D01*
X3631428Y-1418143D01*
X3617143Y-1389572D01*
X3602857Y-1332429D01*
X3602857Y-1261000D01*
X3617143Y-1203857D01*
X3631428Y-1175286D01*
X3645714Y-1161000D01*
X3674286Y-1146714D01*
X3874286Y-1146714D02*
X4060000Y-1146714D01*
X3960000Y-1261000D01*
X4002857Y-1261000D01*
X4031428Y-1275286D01*
X4045714Y-1289572D01*
X4060000Y-1318143D01*
X4060000Y-1389572D01*
X4045714Y-1418143D01*
X4031428Y-1432429D01*
X4002857Y-1446714D01*
X3917143Y-1446714D01*
X3888571Y-1432429D01*
X3874286Y-1418143D01*
X4202857Y-1446714D02*
X4260000Y-1446714D01*
X4288571Y-1432429D01*
X4302857Y-1418143D01*
X4331428Y-1375286D01*
X4345714Y-1318143D01*
X4345714Y-1203857D01*
X4331428Y-1175286D01*
X4317143Y-1161000D01*
X4288571Y-1146714D01*
X4231428Y-1146714D01*
X4202857Y-1161000D01*
X4188571Y-1175286D01*
X4174286Y-1203857D01*
X4174286Y-1275286D01*
X4188571Y-1303857D01*
X4202857Y-1318143D01*
X4231428Y-1332429D01*
X4288571Y-1332429D01*
X4317143Y-1318143D01*
X4331428Y-1303857D01*
X4345714Y-1275286D01*
X4602857Y-1246714D02*
X4602857Y-1446714D01*
X4531428Y-1132429D02*
X4460000Y-1346714D01*
X4645714Y-1346714D01*
X4745714Y-1146714D02*
X4745714Y-1203857D01*
X4860000Y-1146714D02*
X4860000Y-1203857D01*
X5302857Y-1561000D02*
X5288571Y-1546714D01*
X5260000Y-1503857D01*
X5245714Y-1475286D01*
X5231428Y-1432429D01*
X5217143Y-1361000D01*
X5217143Y-1303857D01*
X5231428Y-1232429D01*
X5245714Y-1189572D01*
X5260000Y-1161000D01*
X5288571Y-1118143D01*
X5302857Y-1103857D01*
X5574286Y-1446714D02*
X5402857Y-1446714D01*
X5488571Y-1446714D02*
X5488571Y-1146714D01*
X5460000Y-1189572D01*
X5431428Y-1218143D01*
X5402857Y-1232429D01*
X5760000Y-1146714D02*
X5788571Y-1146714D01*
X5817143Y-1161000D01*
X5831428Y-1175286D01*
X5845714Y-1203857D01*
X5860000Y-1261000D01*
X5860000Y-1332429D01*
X5845714Y-1389572D01*
X5831428Y-1418143D01*
X5817143Y-1432429D01*
X5788571Y-1446714D01*
X5760000Y-1446714D01*
X5731428Y-1432429D01*
X5717143Y-1418143D01*
X5702857Y-1389572D01*
X5688571Y-1332429D01*
X5688571Y-1261000D01*
X5702857Y-1203857D01*
X5717143Y-1175286D01*
X5731428Y-1161000D01*
X5760000Y-1146714D01*
X6045714Y-1146714D02*
X6074286Y-1146714D01*
X6102857Y-1161000D01*
X6117143Y-1175286D01*
X6131428Y-1203857D01*
X6145714Y-1261000D01*
X6145714Y-1332429D01*
X6131428Y-1389572D01*
X6117143Y-1418143D01*
X6102857Y-1432429D01*
X6074286Y-1446714D01*
X6045714Y-1446714D01*
X6017143Y-1432429D01*
X6002857Y-1418143D01*
X5988571Y-1389572D01*
X5974286Y-1332429D01*
X5974286Y-1261000D01*
X5988571Y-1203857D01*
X6002857Y-1175286D01*
X6017143Y-1161000D01*
X6045714Y-1146714D01*
X6502857Y-1446714D02*
X6502857Y-1146714D01*
X6631428Y-1446714D02*
X6631428Y-1289572D01*
X6617143Y-1261000D01*
X6588571Y-1246714D01*
X6545714Y-1246714D01*
X6517143Y-1261000D01*
X6502857Y-1275286D01*
X6817143Y-1446714D02*
X6788571Y-1432429D01*
X6774286Y-1418143D01*
X6760000Y-1389572D01*
X6760000Y-1303857D01*
X6774286Y-1275286D01*
X6788571Y-1261000D01*
X6817143Y-1246714D01*
X6860000Y-1246714D01*
X6888571Y-1261000D01*
X6902857Y-1275286D01*
X6917143Y-1303857D01*
X6917143Y-1389572D01*
X6902857Y-1418143D01*
X6888571Y-1432429D01*
X6860000Y-1446714D01*
X6817143Y-1446714D01*
X7088571Y-1446714D02*
X7060000Y-1432429D01*
X7045714Y-1403857D01*
X7045714Y-1146714D01*
X7317143Y-1432429D02*
X7288571Y-1446714D01*
X7231428Y-1446714D01*
X7202857Y-1432429D01*
X7188571Y-1403857D01*
X7188571Y-1289572D01*
X7202857Y-1261000D01*
X7231428Y-1246714D01*
X7288571Y-1246714D01*
X7317143Y-1261000D01*
X7331428Y-1289572D01*
X7331428Y-1318143D01*
X7188571Y-1346714D01*
X7445714Y-1432429D02*
X7474286Y-1446714D01*
X7531428Y-1446714D01*
X7560000Y-1432429D01*
X7574286Y-1403857D01*
X7574286Y-1389572D01*
X7560000Y-1361000D01*
X7531428Y-1346714D01*
X7488571Y-1346714D01*
X7460000Y-1332429D01*
X7445714Y-1303857D01*
X7445714Y-1289572D01*
X7460000Y-1261000D01*
X7488571Y-1246714D01*
X7531428Y-1246714D01*
X7560000Y-1261000D01*
X7674286Y-1561000D02*
X7688571Y-1546714D01*
X7717143Y-1503857D01*
X7731428Y-1475286D01*
X7745714Y-1432429D01*
X7760000Y-1361000D01*
X7760000Y-1303857D01*
X7745714Y-1232429D01*
X7731428Y-1189572D01*
X7717143Y-1161000D01*
X7688571Y-1118143D01*
X7674286Y-1103857D01*
M02*
