M48
; DRILL file {KiCad (5.1.10)-1} date 11/15/21 09:05:28
; FORMAT={-:-/ absolute / metric / decimal}
; #@! TF.CreationDate,2021-11-15T09:05:28+01:00
; #@! TF.GenerationSoftware,Kicad,Pcbnew,(5.1.10)-1
; #@! TF.FileFunction,NonPlated,1,2,NPTH
FMAT,2
METRIC
T1C2.100
%
G90
G05
T1
X3.5Y96.5
X3.5Y3.5
X64.5Y96.5
X64.5Y3.5
T0
M30
