(kicad_pcb (version 20171130) (host pcbnew "(5.1.10)-1")

  (general
    (thickness 1.6)
    (drawings 5)
    (tracks 152)
    (zones 0)
    (modules 6)
    (nets 61)
  )

  (page A4)
  (layers
    (0 F.Cu signal)
    (31 B.Cu signal)
    (32 B.Adhes user)
    (33 F.Adhes user)
    (34 B.Paste user)
    (35 F.Paste user)
    (36 B.SilkS user)
    (37 F.SilkS user)
    (38 B.Mask user)
    (39 F.Mask user)
    (40 Dwgs.User user)
    (41 Cmts.User user)
    (42 Eco1.User user)
    (43 Eco2.User user)
    (44 Edge.Cuts user)
    (45 Margin user)
    (46 B.CrtYd user)
    (47 F.CrtYd user)
    (48 B.Fab user)
    (49 F.Fab user)
  )

  (setup
    (last_trace_width 0.5)
    (user_trace_width 0.5)
    (trace_clearance 0.2)
    (zone_clearance 0.508)
    (zone_45_only no)
    (trace_min 0.2)
    (via_size 0.8)
    (via_drill 0.4)
    (via_min_size 0.4)
    (via_min_drill 0.3)
    (user_via 0.9 0.5)
    (uvia_size 0.3)
    (uvia_drill 0.1)
    (uvias_allowed no)
    (uvia_min_size 0.2)
    (uvia_min_drill 0.1)
    (edge_width 0.1)
    (segment_width 0.2)
    (pcb_text_width 0.3)
    (pcb_text_size 1.5 1.5)
    (mod_edge_width 0.15)
    (mod_text_size 1 1)
    (mod_text_width 0.15)
    (pad_size 1.524 1.524)
    (pad_drill 0.762)
    (pad_to_mask_clearance 0)
    (aux_axis_origin 0 0)
    (visible_elements 7FFFFFFF)
    (pcbplotparams
      (layerselection 0x010fc_ffffffff)
      (usegerberextensions false)
      (usegerberattributes true)
      (usegerberadvancedattributes true)
      (creategerberjobfile true)
      (excludeedgelayer true)
      (linewidth 0.100000)
      (plotframeref false)
      (viasonmask false)
      (mode 1)
      (useauxorigin false)
      (hpglpennumber 1)
      (hpglpenspeed 20)
      (hpglpendiameter 15.000000)
      (psnegative false)
      (psa4output false)
      (plotreference true)
      (plotvalue true)
      (plotinvisibletext false)
      (padsonsilk false)
      (subtractmaskfromsilk false)
      (outputformat 1)
      (mirror false)
      (drillshape 1)
      (scaleselection 1)
      (outputdirectory ""))
  )

  (net 0 "")
  (net 1 "Net-(AIRLIFT_LEFT1-Pad1)")
  (net 2 "Net-(AIRLIFT_LEFT1-Pad2)")
  (net 3 "Net-(AIRLIFT_LEFT1-Pad3)")
  (net 4 SHARED_GND)
  (net 5 "Net-(AIRLIFT_LEFT1-Pad5)")
  (net 6 "Net-(AIRLIFT_LEFT1-Pad6)")
  (net 7 "Net-(AIRLIFT_LEFT1-Pad7)")
  (net 8 "Net-(AIRLIFT_LEFT1-Pad8)")
  (net 9 "Net-(AIRLIFT_LEFT1-Pad9)")
  (net 10 "Net-(AIRLIFT_LEFT1-Pad10)")
  (net 11 GP10)
  (net 12 GP11)
  (net 13 GP12)
  (net 14 "Net-(AIRLIFT_LEFT1-Pad14)")
  (net 15 "Net-(AIRLIFT_LEFT1-Pad15)")
  (net 16 "Net-(AIRLIFT_LEFT1-Pad16)")
  (net 17 "Net-(AIRLIFT_RIGHT1-Pad1)")
  (net 18 "Net-(AIRLIFT_RIGHT1-Pad2)")
  (net 19 VSYS)
  (net 20 GP13)
  (net 21 GP15)
  (net 22 GP14)
  (net 23 "Net-(AIRLIFT_RIGHT1-Pad7)")
  (net 24 "Net-(AIRLIFT_RIGHT1-Pad8)")
  (net 25 "Net-(AIRLIFT_RIGHT1-Pad9)")
  (net 26 "Net-(AIRLIFT_RIGHT1-Pad10)")
  (net 27 "Net-(AIRLIFT_RIGHT1-Pad11)")
  (net 28 "Net-(AIRLIFT_RIGHT1-Pad12)")
  (net 29 GP0)
  (net 30 GP1)
  (net 31 GND1)
  (net 32 GP2)
  (net 33 GP3)
  (net 34 GP4)
  (net 35 GP5)
  (net 36 GND2)
  (net 37 GP6)
  (net 38 GP7)
  (net 39 GP8)
  (net 40 GP9)
  (net 41 GND3)
  (net 42 GND4)
  (net 43 GP17)
  (net 44 GP16)
  (net 45 GND7)
  (net 46 GP18)
  (net 47 GP19)
  (net 48 GP20)
  (net 49 GP21)
  (net 50 GND6)
  (net 51 GP22)
  (net 52 RUN)
  (net 53 GP26)
  (net 54 GP27)
  (net 55 GND5)
  (net 56 GP28)
  (net 57 ADC_VREF)
  (net 58 3V3_OUT)
  (net 59 3V3_EN)
  (net 60 VBUS)

  (net_class Default "This is the default net class."
    (clearance 0.2)
    (trace_width 0.25)
    (via_dia 0.8)
    (via_drill 0.4)
    (uvia_dia 0.3)
    (uvia_drill 0.1)
    (add_net 3V3_EN)
    (add_net 3V3_OUT)
    (add_net ADC_VREF)
    (add_net GND1)
    (add_net GND2)
    (add_net GND3)
    (add_net GND4)
    (add_net GND5)
    (add_net GND6)
    (add_net GND7)
    (add_net GP0)
    (add_net GP1)
    (add_net GP10)
    (add_net GP11)
    (add_net GP12)
    (add_net GP13)
    (add_net GP14)
    (add_net GP15)
    (add_net GP16)
    (add_net GP17)
    (add_net GP18)
    (add_net GP19)
    (add_net GP2)
    (add_net GP20)
    (add_net GP21)
    (add_net GP22)
    (add_net GP26)
    (add_net GP27)
    (add_net GP28)
    (add_net GP3)
    (add_net GP4)
    (add_net GP5)
    (add_net GP6)
    (add_net GP7)
    (add_net GP8)
    (add_net GP9)
    (add_net "Net-(AIRLIFT_LEFT1-Pad1)")
    (add_net "Net-(AIRLIFT_LEFT1-Pad10)")
    (add_net "Net-(AIRLIFT_LEFT1-Pad14)")
    (add_net "Net-(AIRLIFT_LEFT1-Pad15)")
    (add_net "Net-(AIRLIFT_LEFT1-Pad16)")
    (add_net "Net-(AIRLIFT_LEFT1-Pad2)")
    (add_net "Net-(AIRLIFT_LEFT1-Pad3)")
    (add_net "Net-(AIRLIFT_LEFT1-Pad5)")
    (add_net "Net-(AIRLIFT_LEFT1-Pad6)")
    (add_net "Net-(AIRLIFT_LEFT1-Pad7)")
    (add_net "Net-(AIRLIFT_LEFT1-Pad8)")
    (add_net "Net-(AIRLIFT_LEFT1-Pad9)")
    (add_net "Net-(AIRLIFT_RIGHT1-Pad1)")
    (add_net "Net-(AIRLIFT_RIGHT1-Pad10)")
    (add_net "Net-(AIRLIFT_RIGHT1-Pad11)")
    (add_net "Net-(AIRLIFT_RIGHT1-Pad12)")
    (add_net "Net-(AIRLIFT_RIGHT1-Pad2)")
    (add_net "Net-(AIRLIFT_RIGHT1-Pad7)")
    (add_net "Net-(AIRLIFT_RIGHT1-Pad8)")
    (add_net "Net-(AIRLIFT_RIGHT1-Pad9)")
    (add_net RUN)
    (add_net SHARED_GND)
    (add_net VBUS)
    (add_net VSYS)
  )

  (module Connector_PinSocket_2.54mm:PinSocket_1x16_P2.54mm_Vertical (layer F.Cu) (tedit 5A19A41E) (tstamp 6180647A)
    (at 120.65 135.89 270)
    (descr "Through hole straight socket strip, 1x16, 2.54mm pitch, single row (from Kicad 4.0.7), script generated")
    (tags "Through hole socket strip THT 1x16 2.54mm single row")
    (path /61822077)
    (fp_text reference AIRLIFT_LEFT1 (at 0 -2.77 90) (layer F.SilkS)
      (effects (font (size 1 1) (thickness 0.15)))
    )
    (fp_text value Conn_01x16 (at 0 40.87 90) (layer F.Fab)
      (effects (font (size 1 1) (thickness 0.15)))
    )
    (fp_line (start -1.27 -1.27) (end 0.635 -1.27) (layer F.Fab) (width 0.1))
    (fp_line (start 0.635 -1.27) (end 1.27 -0.635) (layer F.Fab) (width 0.1))
    (fp_line (start 1.27 -0.635) (end 1.27 39.37) (layer F.Fab) (width 0.1))
    (fp_line (start 1.27 39.37) (end -1.27 39.37) (layer F.Fab) (width 0.1))
    (fp_line (start -1.27 39.37) (end -1.27 -1.27) (layer F.Fab) (width 0.1))
    (fp_line (start -1.33 1.27) (end 1.33 1.27) (layer F.SilkS) (width 0.12))
    (fp_line (start -1.33 1.27) (end -1.33 39.43) (layer F.SilkS) (width 0.12))
    (fp_line (start -1.33 39.43) (end 1.33 39.43) (layer F.SilkS) (width 0.12))
    (fp_line (start 1.33 1.27) (end 1.33 39.43) (layer F.SilkS) (width 0.12))
    (fp_line (start 1.33 -1.33) (end 1.33 0) (layer F.SilkS) (width 0.12))
    (fp_line (start 0 -1.33) (end 1.33 -1.33) (layer F.SilkS) (width 0.12))
    (fp_line (start -1.8 -1.8) (end 1.75 -1.8) (layer F.CrtYd) (width 0.05))
    (fp_line (start 1.75 -1.8) (end 1.75 39.9) (layer F.CrtYd) (width 0.05))
    (fp_line (start 1.75 39.9) (end -1.8 39.9) (layer F.CrtYd) (width 0.05))
    (fp_line (start -1.8 39.9) (end -1.8 -1.8) (layer F.CrtYd) (width 0.05))
    (fp_text user %R (at 0 19.05) (layer F.Fab)
      (effects (font (size 1 1) (thickness 0.15)))
    )
    (pad 1 thru_hole rect (at 0 0 270) (size 1.7 1.7) (drill 1) (layers *.Cu *.Mask)
      (net 1 "Net-(AIRLIFT_LEFT1-Pad1)"))
    (pad 2 thru_hole oval (at 0 2.54 270) (size 1.7 1.7) (drill 1) (layers *.Cu *.Mask)
      (net 2 "Net-(AIRLIFT_LEFT1-Pad2)"))
    (pad 3 thru_hole oval (at 0 5.08 270) (size 1.7 1.7) (drill 1) (layers *.Cu *.Mask)
      (net 3 "Net-(AIRLIFT_LEFT1-Pad3)"))
    (pad 4 thru_hole oval (at 0 7.62 270) (size 1.7 1.7) (drill 1) (layers *.Cu *.Mask)
      (net 4 SHARED_GND))
    (pad 5 thru_hole oval (at 0 10.16 270) (size 1.7 1.7) (drill 1) (layers *.Cu *.Mask)
      (net 5 "Net-(AIRLIFT_LEFT1-Pad5)"))
    (pad 6 thru_hole oval (at 0 12.7 270) (size 1.7 1.7) (drill 1) (layers *.Cu *.Mask)
      (net 6 "Net-(AIRLIFT_LEFT1-Pad6)"))
    (pad 7 thru_hole oval (at 0 15.24 270) (size 1.7 1.7) (drill 1) (layers *.Cu *.Mask)
      (net 7 "Net-(AIRLIFT_LEFT1-Pad7)"))
    (pad 8 thru_hole oval (at 0 17.78 270) (size 1.7 1.7) (drill 1) (layers *.Cu *.Mask)
      (net 8 "Net-(AIRLIFT_LEFT1-Pad8)"))
    (pad 9 thru_hole oval (at 0 20.32 270) (size 1.7 1.7) (drill 1) (layers *.Cu *.Mask)
      (net 9 "Net-(AIRLIFT_LEFT1-Pad9)"))
    (pad 10 thru_hole oval (at 0 22.86 270) (size 1.7 1.7) (drill 1) (layers *.Cu *.Mask)
      (net 10 "Net-(AIRLIFT_LEFT1-Pad10)"))
    (pad 11 thru_hole oval (at 0 25.4 270) (size 1.7 1.7) (drill 1) (layers *.Cu *.Mask)
      (net 11 GP10))
    (pad 12 thru_hole oval (at 0 27.94 270) (size 1.7 1.7) (drill 1) (layers *.Cu *.Mask)
      (net 12 GP11))
    (pad 13 thru_hole oval (at 0 30.48 270) (size 1.7 1.7) (drill 1) (layers *.Cu *.Mask)
      (net 13 GP12))
    (pad 14 thru_hole oval (at 0 33.02 270) (size 1.7 1.7) (drill 1) (layers *.Cu *.Mask)
      (net 14 "Net-(AIRLIFT_LEFT1-Pad14)"))
    (pad 15 thru_hole oval (at 0 35.56 270) (size 1.7 1.7) (drill 1) (layers *.Cu *.Mask)
      (net 15 "Net-(AIRLIFT_LEFT1-Pad15)"))
    (pad 16 thru_hole oval (at 0 38.1 270) (size 1.7 1.7) (drill 1) (layers *.Cu *.Mask)
      (net 16 "Net-(AIRLIFT_LEFT1-Pad16)"))
    (model ${KISYS3DMOD}/Connector_PinSocket_2.54mm.3dshapes/PinSocket_1x16_P2.54mm_Vertical.wrl
      (at (xyz 0 0 0))
      (scale (xyz 1 1 1))
      (rotate (xyz 0 0 0))
    )
  )

  (module Connector_PinSocket_2.54mm:PinSocket_1x12_P2.54mm_Vertical (layer F.Cu) (tedit 5A19A41D) (tstamp 6180649A)
    (at 120.65 125.73 270)
    (descr "Through hole straight socket strip, 1x12, 2.54mm pitch, single row (from Kicad 4.0.7), script generated")
    (tags "Through hole socket strip THT 1x12 2.54mm single row")
    (path /61811928)
    (fp_text reference AIRLIFT_RIGHT1 (at 0 -2.77 90) (layer F.SilkS)
      (effects (font (size 1 1) (thickness 0.15)))
    )
    (fp_text value Conn_01x12 (at 0 30.71 90) (layer F.Fab)
      (effects (font (size 1 1) (thickness 0.15)))
    )
    (fp_line (start -1.27 -1.27) (end 0.635 -1.27) (layer F.Fab) (width 0.1))
    (fp_line (start 0.635 -1.27) (end 1.27 -0.635) (layer F.Fab) (width 0.1))
    (fp_line (start 1.27 -0.635) (end 1.27 29.21) (layer F.Fab) (width 0.1))
    (fp_line (start 1.27 29.21) (end -1.27 29.21) (layer F.Fab) (width 0.1))
    (fp_line (start -1.27 29.21) (end -1.27 -1.27) (layer F.Fab) (width 0.1))
    (fp_line (start -1.33 1.27) (end 1.33 1.27) (layer F.SilkS) (width 0.12))
    (fp_line (start -1.33 1.27) (end -1.33 29.27) (layer F.SilkS) (width 0.12))
    (fp_line (start -1.33 29.27) (end 1.33 29.27) (layer F.SilkS) (width 0.12))
    (fp_line (start 1.33 1.27) (end 1.33 29.27) (layer F.SilkS) (width 0.12))
    (fp_line (start 1.33 -1.33) (end 1.33 0) (layer F.SilkS) (width 0.12))
    (fp_line (start 0 -1.33) (end 1.33 -1.33) (layer F.SilkS) (width 0.12))
    (fp_line (start -1.8 -1.8) (end 1.75 -1.8) (layer F.CrtYd) (width 0.05))
    (fp_line (start 1.75 -1.8) (end 1.75 29.7) (layer F.CrtYd) (width 0.05))
    (fp_line (start 1.75 29.7) (end -1.8 29.7) (layer F.CrtYd) (width 0.05))
    (fp_line (start -1.8 29.7) (end -1.8 -1.8) (layer F.CrtYd) (width 0.05))
    (fp_text user %R (at 0 13.97) (layer F.Fab)
      (effects (font (size 1 1) (thickness 0.15)))
    )
    (pad 1 thru_hole rect (at 0 0 270) (size 1.7 1.7) (drill 1) (layers *.Cu *.Mask)
      (net 17 "Net-(AIRLIFT_RIGHT1-Pad1)"))
    (pad 2 thru_hole oval (at 0 2.54 270) (size 1.7 1.7) (drill 1) (layers *.Cu *.Mask)
      (net 18 "Net-(AIRLIFT_RIGHT1-Pad2)"))
    (pad 3 thru_hole oval (at 0 5.08 270) (size 1.7 1.7) (drill 1) (layers *.Cu *.Mask)
      (net 19 VSYS))
    (pad 4 thru_hole oval (at 0 7.62 270) (size 1.7 1.7) (drill 1) (layers *.Cu *.Mask)
      (net 20 GP13))
    (pad 5 thru_hole oval (at 0 10.16 270) (size 1.7 1.7) (drill 1) (layers *.Cu *.Mask)
      (net 21 GP15))
    (pad 6 thru_hole oval (at 0 12.7 270) (size 1.7 1.7) (drill 1) (layers *.Cu *.Mask)
      (net 22 GP14))
    (pad 7 thru_hole oval (at 0 15.24 270) (size 1.7 1.7) (drill 1) (layers *.Cu *.Mask)
      (net 23 "Net-(AIRLIFT_RIGHT1-Pad7)"))
    (pad 8 thru_hole oval (at 0 17.78 270) (size 1.7 1.7) (drill 1) (layers *.Cu *.Mask)
      (net 24 "Net-(AIRLIFT_RIGHT1-Pad8)"))
    (pad 9 thru_hole oval (at 0 20.32 270) (size 1.7 1.7) (drill 1) (layers *.Cu *.Mask)
      (net 25 "Net-(AIRLIFT_RIGHT1-Pad9)"))
    (pad 10 thru_hole oval (at 0 22.86 270) (size 1.7 1.7) (drill 1) (layers *.Cu *.Mask)
      (net 26 "Net-(AIRLIFT_RIGHT1-Pad10)"))
    (pad 11 thru_hole oval (at 0 25.4 270) (size 1.7 1.7) (drill 1) (layers *.Cu *.Mask)
      (net 27 "Net-(AIRLIFT_RIGHT1-Pad11)"))
    (pad 12 thru_hole oval (at 0 27.94 270) (size 1.7 1.7) (drill 1) (layers *.Cu *.Mask)
      (net 28 "Net-(AIRLIFT_RIGHT1-Pad12)"))
    (model ${KISYS3DMOD}/Connector_PinSocket_2.54mm.3dshapes/PinSocket_1x12_P2.54mm_Vertical.wrl
      (at (xyz 0 0 0))
      (scale (xyz 1 1 1))
      (rotate (xyz 0 0 0))
    )
  )

  (module Connector_PinHeader_2.54mm:PinHeader_1x16_P2.54mm_Vertical (layer F.Cu) (tedit 59FED5CC) (tstamp 618064BE)
    (at 78.74 66.04)
    (descr "Through hole straight pin header, 1x16, 2.54mm pitch, single row")
    (tags "Through hole pin header THT 1x16 2.54mm single row")
    (path /6180F8D6)
    (fp_text reference PIN_LEFT1 (at 0 -2.33) (layer F.SilkS)
      (effects (font (size 1 1) (thickness 0.15)))
    )
    (fp_text value Conn_01x16 (at 0 40.43) (layer F.Fab)
      (effects (font (size 1 1) (thickness 0.15)))
    )
    (fp_line (start -0.635 -1.27) (end 1.27 -1.27) (layer F.Fab) (width 0.1))
    (fp_line (start 1.27 -1.27) (end 1.27 39.37) (layer F.Fab) (width 0.1))
    (fp_line (start 1.27 39.37) (end -1.27 39.37) (layer F.Fab) (width 0.1))
    (fp_line (start -1.27 39.37) (end -1.27 -0.635) (layer F.Fab) (width 0.1))
    (fp_line (start -1.27 -0.635) (end -0.635 -1.27) (layer F.Fab) (width 0.1))
    (fp_line (start -1.33 39.43) (end 1.33 39.43) (layer F.SilkS) (width 0.12))
    (fp_line (start -1.33 1.27) (end -1.33 39.43) (layer F.SilkS) (width 0.12))
    (fp_line (start 1.33 1.27) (end 1.33 39.43) (layer F.SilkS) (width 0.12))
    (fp_line (start -1.33 1.27) (end 1.33 1.27) (layer F.SilkS) (width 0.12))
    (fp_line (start -1.33 0) (end -1.33 -1.33) (layer F.SilkS) (width 0.12))
    (fp_line (start -1.33 -1.33) (end 0 -1.33) (layer F.SilkS) (width 0.12))
    (fp_line (start -1.8 -1.8) (end -1.8 39.9) (layer F.CrtYd) (width 0.05))
    (fp_line (start -1.8 39.9) (end 1.8 39.9) (layer F.CrtYd) (width 0.05))
    (fp_line (start 1.8 39.9) (end 1.8 -1.8) (layer F.CrtYd) (width 0.05))
    (fp_line (start 1.8 -1.8) (end -1.8 -1.8) (layer F.CrtYd) (width 0.05))
    (fp_text user %R (at 0 19.05 90) (layer F.Fab)
      (effects (font (size 1 1) (thickness 0.15)))
    )
    (pad 1 thru_hole rect (at 0 0) (size 1.7 1.7) (drill 1) (layers *.Cu *.Mask)
      (net 29 GP0))
    (pad 2 thru_hole oval (at 0 2.54) (size 1.7 1.7) (drill 1) (layers *.Cu *.Mask)
      (net 30 GP1))
    (pad 3 thru_hole oval (at 0 5.08) (size 1.7 1.7) (drill 1) (layers *.Cu *.Mask)
      (net 31 GND1))
    (pad 4 thru_hole oval (at 0 7.62) (size 1.7 1.7) (drill 1) (layers *.Cu *.Mask)
      (net 32 GP2))
    (pad 5 thru_hole oval (at 0 10.16) (size 1.7 1.7) (drill 1) (layers *.Cu *.Mask)
      (net 33 GP3))
    (pad 6 thru_hole oval (at 0 12.7) (size 1.7 1.7) (drill 1) (layers *.Cu *.Mask)
      (net 34 GP4))
    (pad 7 thru_hole oval (at 0 15.24) (size 1.7 1.7) (drill 1) (layers *.Cu *.Mask)
      (net 35 GP5))
    (pad 8 thru_hole oval (at 0 17.78) (size 1.7 1.7) (drill 1) (layers *.Cu *.Mask)
      (net 36 GND2))
    (pad 9 thru_hole oval (at 0 20.32) (size 1.7 1.7) (drill 1) (layers *.Cu *.Mask)
      (net 37 GP6))
    (pad 10 thru_hole oval (at 0 22.86) (size 1.7 1.7) (drill 1) (layers *.Cu *.Mask)
      (net 38 GP7))
    (pad 11 thru_hole oval (at 0 25.4) (size 1.7 1.7) (drill 1) (layers *.Cu *.Mask)
      (net 39 GP8))
    (pad 12 thru_hole oval (at 0 27.94) (size 1.7 1.7) (drill 1) (layers *.Cu *.Mask)
      (net 40 GP9))
    (pad 13 thru_hole oval (at 0 30.48) (size 1.7 1.7) (drill 1) (layers *.Cu *.Mask)
      (net 41 GND3))
    (pad 14 thru_hole oval (at 0 33.02) (size 1.7 1.7) (drill 1) (layers *.Cu *.Mask)
      (net 42 GND4))
    (pad 15 thru_hole oval (at 0 35.56) (size 1.7 1.7) (drill 1) (layers *.Cu *.Mask)
      (net 43 GP17))
    (pad 16 thru_hole oval (at 0 38.1) (size 1.7 1.7) (drill 1) (layers *.Cu *.Mask)
      (net 44 GP16))
    (model ${KISYS3DMOD}/Connector_PinHeader_2.54mm.3dshapes/PinHeader_1x16_P2.54mm_Vertical.wrl
      (at (xyz 0 0 0))
      (scale (xyz 1 1 1))
      (rotate (xyz 0 0 0))
    )
  )

  (module Connector_PinHeader_2.54mm:PinHeader_1x16_P2.54mm_Vertical (layer F.Cu) (tedit 59FED5CC) (tstamp 618064E2)
    (at 128.27 66.04)
    (descr "Through hole straight pin header, 1x16, 2.54mm pitch, single row")
    (tags "Through hole pin header THT 1x16 2.54mm single row")
    (path /618129A5)
    (fp_text reference PIN_RIGHT1 (at 0 -2.33) (layer F.SilkS)
      (effects (font (size 1 1) (thickness 0.15)))
    )
    (fp_text value Conn_01x16 (at 0 40.43) (layer F.Fab)
      (effects (font (size 1 1) (thickness 0.15)))
    )
    (fp_line (start 1.8 -1.8) (end -1.8 -1.8) (layer F.CrtYd) (width 0.05))
    (fp_line (start 1.8 39.9) (end 1.8 -1.8) (layer F.CrtYd) (width 0.05))
    (fp_line (start -1.8 39.9) (end 1.8 39.9) (layer F.CrtYd) (width 0.05))
    (fp_line (start -1.8 -1.8) (end -1.8 39.9) (layer F.CrtYd) (width 0.05))
    (fp_line (start -1.33 -1.33) (end 0 -1.33) (layer F.SilkS) (width 0.12))
    (fp_line (start -1.33 0) (end -1.33 -1.33) (layer F.SilkS) (width 0.12))
    (fp_line (start -1.33 1.27) (end 1.33 1.27) (layer F.SilkS) (width 0.12))
    (fp_line (start 1.33 1.27) (end 1.33 39.43) (layer F.SilkS) (width 0.12))
    (fp_line (start -1.33 1.27) (end -1.33 39.43) (layer F.SilkS) (width 0.12))
    (fp_line (start -1.33 39.43) (end 1.33 39.43) (layer F.SilkS) (width 0.12))
    (fp_line (start -1.27 -0.635) (end -0.635 -1.27) (layer F.Fab) (width 0.1))
    (fp_line (start -1.27 39.37) (end -1.27 -0.635) (layer F.Fab) (width 0.1))
    (fp_line (start 1.27 39.37) (end -1.27 39.37) (layer F.Fab) (width 0.1))
    (fp_line (start 1.27 -1.27) (end 1.27 39.37) (layer F.Fab) (width 0.1))
    (fp_line (start -0.635 -1.27) (end 1.27 -1.27) (layer F.Fab) (width 0.1))
    (fp_text user %R (at 0 19.05 90) (layer F.Fab)
      (effects (font (size 1 1) (thickness 0.15)))
    )
    (pad 16 thru_hole oval (at 0 38.1) (size 1.7 1.7) (drill 1) (layers *.Cu *.Mask)
      (net 45 GND7))
    (pad 15 thru_hole oval (at 0 35.56) (size 1.7 1.7) (drill 1) (layers *.Cu *.Mask)
      (net 46 GP18))
    (pad 14 thru_hole oval (at 0 33.02) (size 1.7 1.7) (drill 1) (layers *.Cu *.Mask)
      (net 47 GP19))
    (pad 13 thru_hole oval (at 0 30.48) (size 1.7 1.7) (drill 1) (layers *.Cu *.Mask)
      (net 48 GP20))
    (pad 12 thru_hole oval (at 0 27.94) (size 1.7 1.7) (drill 1) (layers *.Cu *.Mask)
      (net 49 GP21))
    (pad 11 thru_hole oval (at 0 25.4) (size 1.7 1.7) (drill 1) (layers *.Cu *.Mask)
      (net 50 GND6))
    (pad 10 thru_hole oval (at 0 22.86) (size 1.7 1.7) (drill 1) (layers *.Cu *.Mask)
      (net 51 GP22))
    (pad 9 thru_hole oval (at 0 20.32) (size 1.7 1.7) (drill 1) (layers *.Cu *.Mask)
      (net 52 RUN))
    (pad 8 thru_hole oval (at 0 17.78) (size 1.7 1.7) (drill 1) (layers *.Cu *.Mask)
      (net 53 GP26))
    (pad 7 thru_hole oval (at 0 15.24) (size 1.7 1.7) (drill 1) (layers *.Cu *.Mask)
      (net 54 GP27))
    (pad 6 thru_hole oval (at 0 12.7) (size 1.7 1.7) (drill 1) (layers *.Cu *.Mask)
      (net 55 GND5))
    (pad 5 thru_hole oval (at 0 10.16) (size 1.7 1.7) (drill 1) (layers *.Cu *.Mask)
      (net 56 GP28))
    (pad 4 thru_hole oval (at 0 7.62) (size 1.7 1.7) (drill 1) (layers *.Cu *.Mask)
      (net 57 ADC_VREF))
    (pad 3 thru_hole oval (at 0 5.08) (size 1.7 1.7) (drill 1) (layers *.Cu *.Mask)
      (net 58 3V3_OUT))
    (pad 2 thru_hole oval (at 0 2.54) (size 1.7 1.7) (drill 1) (layers *.Cu *.Mask)
      (net 59 3V3_EN))
    (pad 1 thru_hole rect (at 0 0) (size 1.7 1.7) (drill 1) (layers *.Cu *.Mask)
      (net 60 VBUS))
    (model ${KISYS3DMOD}/Connector_PinHeader_2.54mm.3dshapes/PinHeader_1x16_P2.54mm_Vertical.wrl
      (at (xyz 0 0 0))
      (scale (xyz 1 1 1))
      (rotate (xyz 0 0 0))
    )
  )

  (module Connector_PinSocket_2.54mm:PinSocket_1x20_P2.54mm_Vertical (layer F.Cu) (tedit 5A19A41E) (tstamp 6180650A)
    (at 92.71 60.96)
    (descr "Through hole straight socket strip, 1x20, 2.54mm pitch, single row (from Kicad 4.0.7), script generated")
    (tags "Through hole socket strip THT 1x20 2.54mm single row")
    (path /61827E07)
    (fp_text reference RPI_LEFT1 (at 0 -2.77) (layer F.SilkS)
      (effects (font (size 1 1) (thickness 0.15)))
    )
    (fp_text value Conn_01x20 (at 0 51.03) (layer F.Fab)
      (effects (font (size 1 1) (thickness 0.15)))
    )
    (fp_line (start -1.8 50) (end -1.8 -1.8) (layer F.CrtYd) (width 0.05))
    (fp_line (start 1.75 50) (end -1.8 50) (layer F.CrtYd) (width 0.05))
    (fp_line (start 1.75 -1.8) (end 1.75 50) (layer F.CrtYd) (width 0.05))
    (fp_line (start -1.8 -1.8) (end 1.75 -1.8) (layer F.CrtYd) (width 0.05))
    (fp_line (start 0 -1.33) (end 1.33 -1.33) (layer F.SilkS) (width 0.12))
    (fp_line (start 1.33 -1.33) (end 1.33 0) (layer F.SilkS) (width 0.12))
    (fp_line (start 1.33 1.27) (end 1.33 49.59) (layer F.SilkS) (width 0.12))
    (fp_line (start -1.33 49.59) (end 1.33 49.59) (layer F.SilkS) (width 0.12))
    (fp_line (start -1.33 1.27) (end -1.33 49.59) (layer F.SilkS) (width 0.12))
    (fp_line (start -1.33 1.27) (end 1.33 1.27) (layer F.SilkS) (width 0.12))
    (fp_line (start -1.27 49.53) (end -1.27 -1.27) (layer F.Fab) (width 0.1))
    (fp_line (start 1.27 49.53) (end -1.27 49.53) (layer F.Fab) (width 0.1))
    (fp_line (start 1.27 -0.635) (end 1.27 49.53) (layer F.Fab) (width 0.1))
    (fp_line (start 0.635 -1.27) (end 1.27 -0.635) (layer F.Fab) (width 0.1))
    (fp_line (start -1.27 -1.27) (end 0.635 -1.27) (layer F.Fab) (width 0.1))
    (fp_text user %R (at 0 24.13 90) (layer F.Fab)
      (effects (font (size 1 1) (thickness 0.15)))
    )
    (pad 20 thru_hole oval (at 0 48.26) (size 1.7 1.7) (drill 1) (layers *.Cu *.Mask)
      (net 21 GP15))
    (pad 19 thru_hole oval (at 0 45.72) (size 1.7 1.7) (drill 1) (layers *.Cu *.Mask)
      (net 22 GP14))
    (pad 18 thru_hole oval (at 0 43.18) (size 1.7 1.7) (drill 1) (layers *.Cu *.Mask)
      (net 42 GND4))
    (pad 17 thru_hole oval (at 0 40.64) (size 1.7 1.7) (drill 1) (layers *.Cu *.Mask)
      (net 20 GP13))
    (pad 16 thru_hole oval (at 0 38.1) (size 1.7 1.7) (drill 1) (layers *.Cu *.Mask)
      (net 13 GP12))
    (pad 15 thru_hole oval (at 0 35.56) (size 1.7 1.7) (drill 1) (layers *.Cu *.Mask)
      (net 12 GP11))
    (pad 14 thru_hole oval (at 0 33.02) (size 1.7 1.7) (drill 1) (layers *.Cu *.Mask)
      (net 11 GP10))
    (pad 13 thru_hole oval (at 0 30.48) (size 1.7 1.7) (drill 1) (layers *.Cu *.Mask)
      (net 41 GND3))
    (pad 12 thru_hole oval (at 0 27.94) (size 1.7 1.7) (drill 1) (layers *.Cu *.Mask)
      (net 40 GP9))
    (pad 11 thru_hole oval (at 0 25.4) (size 1.7 1.7) (drill 1) (layers *.Cu *.Mask)
      (net 39 GP8))
    (pad 10 thru_hole oval (at 0 22.86) (size 1.7 1.7) (drill 1) (layers *.Cu *.Mask)
      (net 38 GP7))
    (pad 9 thru_hole oval (at 0 20.32) (size 1.7 1.7) (drill 1) (layers *.Cu *.Mask)
      (net 37 GP6))
    (pad 8 thru_hole oval (at 0 17.78) (size 1.7 1.7) (drill 1) (layers *.Cu *.Mask)
      (net 36 GND2))
    (pad 7 thru_hole oval (at 0 15.24) (size 1.7 1.7) (drill 1) (layers *.Cu *.Mask)
      (net 35 GP5))
    (pad 6 thru_hole oval (at 0 12.7) (size 1.7 1.7) (drill 1) (layers *.Cu *.Mask)
      (net 34 GP4))
    (pad 5 thru_hole oval (at 0 10.16) (size 1.7 1.7) (drill 1) (layers *.Cu *.Mask)
      (net 33 GP3))
    (pad 4 thru_hole oval (at 0 7.62) (size 1.7 1.7) (drill 1) (layers *.Cu *.Mask)
      (net 32 GP2))
    (pad 3 thru_hole oval (at 0 5.08) (size 1.7 1.7) (drill 1) (layers *.Cu *.Mask)
      (net 31 GND1))
    (pad 2 thru_hole oval (at 0 2.54) (size 1.7 1.7) (drill 1) (layers *.Cu *.Mask)
      (net 30 GP1))
    (pad 1 thru_hole rect (at 0 0) (size 1.7 1.7) (drill 1) (layers *.Cu *.Mask)
      (net 29 GP0))
    (model ${KISYS3DMOD}/Connector_PinSocket_2.54mm.3dshapes/PinSocket_1x20_P2.54mm_Vertical.wrl
      (at (xyz 0 0 0))
      (scale (xyz 1 1 1))
      (rotate (xyz 0 0 0))
    )
  )

  (module Connector_PinSocket_2.54mm:PinSocket_1x20_P2.54mm_Vertical (layer F.Cu) (tedit 5A19A41E) (tstamp 61806532)
    (at 114.3 60.96)
    (descr "Through hole straight socket strip, 1x20, 2.54mm pitch, single row (from Kicad 4.0.7), script generated")
    (tags "Through hole socket strip THT 1x20 2.54mm single row")
    (path /6180FEB4)
    (fp_text reference RPI_RIGHT1 (at 0 -2.77) (layer F.SilkS)
      (effects (font (size 1 1) (thickness 0.15)))
    )
    (fp_text value Conn_01x20 (at 0 51.03) (layer F.Fab)
      (effects (font (size 1 1) (thickness 0.15)))
    )
    (fp_line (start -1.27 -1.27) (end 0.635 -1.27) (layer F.Fab) (width 0.1))
    (fp_line (start 0.635 -1.27) (end 1.27 -0.635) (layer F.Fab) (width 0.1))
    (fp_line (start 1.27 -0.635) (end 1.27 49.53) (layer F.Fab) (width 0.1))
    (fp_line (start 1.27 49.53) (end -1.27 49.53) (layer F.Fab) (width 0.1))
    (fp_line (start -1.27 49.53) (end -1.27 -1.27) (layer F.Fab) (width 0.1))
    (fp_line (start -1.33 1.27) (end 1.33 1.27) (layer F.SilkS) (width 0.12))
    (fp_line (start -1.33 1.27) (end -1.33 49.59) (layer F.SilkS) (width 0.12))
    (fp_line (start -1.33 49.59) (end 1.33 49.59) (layer F.SilkS) (width 0.12))
    (fp_line (start 1.33 1.27) (end 1.33 49.59) (layer F.SilkS) (width 0.12))
    (fp_line (start 1.33 -1.33) (end 1.33 0) (layer F.SilkS) (width 0.12))
    (fp_line (start 0 -1.33) (end 1.33 -1.33) (layer F.SilkS) (width 0.12))
    (fp_line (start -1.8 -1.8) (end 1.75 -1.8) (layer F.CrtYd) (width 0.05))
    (fp_line (start 1.75 -1.8) (end 1.75 50) (layer F.CrtYd) (width 0.05))
    (fp_line (start 1.75 50) (end -1.8 50) (layer F.CrtYd) (width 0.05))
    (fp_line (start -1.8 50) (end -1.8 -1.8) (layer F.CrtYd) (width 0.05))
    (fp_text user %R (at 0 24.13 90) (layer F.Fab)
      (effects (font (size 1 1) (thickness 0.15)))
    )
    (pad 1 thru_hole rect (at 0 0) (size 1.7 1.7) (drill 1) (layers *.Cu *.Mask)
      (net 60 VBUS))
    (pad 2 thru_hole oval (at 0 2.54) (size 1.7 1.7) (drill 1) (layers *.Cu *.Mask)
      (net 19 VSYS))
    (pad 3 thru_hole oval (at 0 5.08) (size 1.7 1.7) (drill 1) (layers *.Cu *.Mask)
      (net 4 SHARED_GND))
    (pad 4 thru_hole oval (at 0 7.62) (size 1.7 1.7) (drill 1) (layers *.Cu *.Mask)
      (net 59 3V3_EN))
    (pad 5 thru_hole oval (at 0 10.16) (size 1.7 1.7) (drill 1) (layers *.Cu *.Mask)
      (net 58 3V3_OUT))
    (pad 6 thru_hole oval (at 0 12.7) (size 1.7 1.7) (drill 1) (layers *.Cu *.Mask)
      (net 57 ADC_VREF))
    (pad 7 thru_hole oval (at 0 15.24) (size 1.7 1.7) (drill 1) (layers *.Cu *.Mask)
      (net 56 GP28))
    (pad 8 thru_hole oval (at 0 17.78) (size 1.7 1.7) (drill 1) (layers *.Cu *.Mask)
      (net 55 GND5))
    (pad 9 thru_hole oval (at 0 20.32) (size 1.7 1.7) (drill 1) (layers *.Cu *.Mask)
      (net 54 GP27))
    (pad 10 thru_hole oval (at 0 22.86) (size 1.7 1.7) (drill 1) (layers *.Cu *.Mask)
      (net 53 GP26))
    (pad 11 thru_hole oval (at 0 25.4) (size 1.7 1.7) (drill 1) (layers *.Cu *.Mask)
      (net 52 RUN))
    (pad 12 thru_hole oval (at 0 27.94) (size 1.7 1.7) (drill 1) (layers *.Cu *.Mask)
      (net 51 GP22))
    (pad 13 thru_hole oval (at 0 30.48) (size 1.7 1.7) (drill 1) (layers *.Cu *.Mask)
      (net 50 GND6))
    (pad 14 thru_hole oval (at 0 33.02) (size 1.7 1.7) (drill 1) (layers *.Cu *.Mask)
      (net 49 GP21))
    (pad 15 thru_hole oval (at 0 35.56) (size 1.7 1.7) (drill 1) (layers *.Cu *.Mask)
      (net 48 GP20))
    (pad 16 thru_hole oval (at 0 38.1) (size 1.7 1.7) (drill 1) (layers *.Cu *.Mask)
      (net 47 GP19))
    (pad 17 thru_hole oval (at 0 40.64) (size 1.7 1.7) (drill 1) (layers *.Cu *.Mask)
      (net 46 GP18))
    (pad 18 thru_hole oval (at 0 43.18) (size 1.7 1.7) (drill 1) (layers *.Cu *.Mask)
      (net 45 GND7))
    (pad 19 thru_hole oval (at 0 45.72) (size 1.7 1.7) (drill 1) (layers *.Cu *.Mask)
      (net 43 GP17))
    (pad 20 thru_hole oval (at 0 48.26) (size 1.7 1.7) (drill 1) (layers *.Cu *.Mask)
      (net 44 GP16))
    (model ${KISYS3DMOD}/Connector_PinSocket_2.54mm.3dshapes/PinSocket_1x20_P2.54mm_Vertical.wrl
      (at (xyz 0 0 0))
      (scale (xyz 1 1 1))
      (rotate (xyz 0 0 0))
    )
  )

  (gr_line (start 140 57) (end 140 145) (layer Edge.Cuts) (width 0.1))
  (gr_line (start 73 57) (end 140 57) (layer Edge.Cuts) (width 0.1))
  (gr_line (start 73 145) (end 73 57) (layer Edge.Cuts) (width 0.1))
  (gr_line (start 140 145) (end 73 145) (layer Edge.Cuts) (width 0.1))
  (gr_text XXXXXX (at 134 68) (layer F.SilkS)
    (effects (font (size 1 1) (thickness 0.15)))
  )

  (segment (start 114.3 66.04) (end 113.03 66.04) (width 0.5) (layer F.Cu) (net 4))
  (segment (start 113.03 66.04) (end 110.49 68.58) (width 0.5) (layer F.Cu) (net 4))
  (segment (start 110.49 68.58) (end 110.49 110.49) (width 0.5) (layer F.Cu) (net 4))
  (segment (start 110.49 110.49) (end 110.49 113.03) (width 0.5) (layer F.Cu) (net 4))
  (segment (start 110.49 113.03) (end 110.49 114.3) (width 0.5) (layer F.Cu) (net 4))
  (segment (start 110.49 114.3) (end 110.49 114.3) (width 0.5) (layer F.Cu) (net 4) (tstamp 618074DC))
  (via (at 110.49 114.3) (size 0.9) (drill 0.5) (layers F.Cu B.Cu) (net 4) (status 1000000))
  (segment (start 113.03 134.62) (end 113.03 135.89) (width 0.5) (layer B.Cu) (net 4))
  (segment (start 116.84 130.81) (end 113.03 134.62) (width 0.5) (layer B.Cu) (net 4))
  (segment (start 121.92 130.81) (end 116.84 130.81) (width 0.5) (layer B.Cu) (net 4))
  (segment (start 124.46 128.27) (end 121.92 130.81) (width 0.5) (layer B.Cu) (net 4))
  (segment (start 124.46 124.46) (end 124.46 128.27) (width 0.5) (layer B.Cu) (net 4))
  (segment (start 119.38 119.38) (end 124.46 124.46) (width 0.5) (layer B.Cu) (net 4))
  (segment (start 110.49 114.3) (end 115.57 119.38) (width 0.5) (layer B.Cu) (net 4))
  (segment (start 115.57 119.38) (end 119.38 119.38) (width 0.5) (layer B.Cu) (net 4))
  (segment (start 104.14 95.25) (end 104.14 109.22) (width 0.5) (layer F.Cu) (net 11))
  (segment (start 92.71 93.98) (end 102.87 93.98) (width 0.5) (layer F.Cu) (net 11))
  (segment (start 102.87 93.98) (end 104.14 95.25) (width 0.5) (layer F.Cu) (net 11))
  (segment (start 104.14 109.22) (end 104.14 110.49) (width 0.5) (layer F.Cu) (net 11))
  (segment (start 104.14 110.49) (end 104.14 116.84) (width 0.5) (layer F.Cu) (net 11))
  (segment (start 104.14 116.84) (end 104.14 119.38) (width 0.5) (layer F.Cu) (net 11))
  (segment (start 104.14 119.38) (end 104.14 119.38) (width 0.5) (layer F.Cu) (net 11) (tstamp 618072F4))
  (segment (start 104.14 119.38) (end 104.14 120.65) (width 0.5) (layer F.Cu) (net 11))
  (segment (start 104.14 120.65) (end 104.14 120.65) (width 0.5) (layer F.Cu) (net 11) (tstamp 61807319))
  (via (at 104.14 120.65) (size 0.9) (drill 0.5) (layers F.Cu B.Cu) (net 11))
  (segment (start 95.25 133.98359) (end 95.25 135.89) (width 0.5) (layer B.Cu) (net 11))
  (segment (start 90.80641 129.54) (end 95.25 133.98359) (width 0.5) (layer B.Cu) (net 11))
  (segment (start 85.09 129.54) (end 90.80641 129.54) (width 0.5) (layer B.Cu) (net 11))
  (segment (start 82.55 125.73) (end 82.55 127) (width 0.5) (layer B.Cu) (net 11))
  (segment (start 85.09 123.19) (end 82.55 125.73) (width 0.5) (layer B.Cu) (net 11))
  (segment (start 102.87 123.19) (end 85.09 123.19) (width 0.5) (layer B.Cu) (net 11))
  (segment (start 82.55 127) (end 85.09 129.54) (width 0.5) (layer B.Cu) (net 11))
  (segment (start 104.14 121.92) (end 102.87 123.19) (width 0.5) (layer B.Cu) (net 11))
  (segment (start 104.14 120.65) (end 104.14 121.92) (width 0.5) (layer B.Cu) (net 11))
  (segment (start 101.6 109.22) (end 101.6 110.49) (width 0.5) (layer F.Cu) (net 12))
  (segment (start 92.71 96.52) (end 100.33 96.52) (width 0.5) (layer F.Cu) (net 12))
  (segment (start 100.33 96.52) (end 101.6 97.79) (width 0.5) (layer F.Cu) (net 12))
  (segment (start 101.6 97.79) (end 101.6 110.49) (width 0.5) (layer F.Cu) (net 12))
  (segment (start 101.6 110.49) (end 101.6 116.84) (width 0.5) (layer F.Cu) (net 12))
  (segment (start 101.6 116.84) (end 101.6 118.654999) (width 0.5) (layer F.Cu) (net 12))
  (segment (start 101.6 118.654999) (end 101.6 119.38) (width 0.5) (layer F.Cu) (net 12))
  (segment (start 101.6 119.38) (end 101.6 119.38) (width 0.5) (layer F.Cu) (net 12) (tstamp 618072F2))
  (via (at 101.6 119.38) (size 0.9) (drill 0.5) (layers F.Cu B.Cu) (net 12))
  (segment (start 92.71 139.7) (end 92.71 135.89) (width 0.5) (layer B.Cu) (net 12))
  (segment (start 81.28 143.51) (end 88.9 143.51) (width 0.5) (layer B.Cu) (net 12))
  (segment (start 78.74 140.97) (end 81.28 143.51) (width 0.5) (layer B.Cu) (net 12))
  (segment (start 88.9 143.51) (end 92.71 139.7) (width 0.5) (layer B.Cu) (net 12))
  (segment (start 78.74 127) (end 78.74 140.97) (width 0.5) (layer B.Cu) (net 12))
  (segment (start 83.82 121.92) (end 78.74 127) (width 0.5) (layer B.Cu) (net 12))
  (segment (start 100.33 121.92) (end 83.82 121.92) (width 0.5) (layer B.Cu) (net 12))
  (segment (start 101.6 120.65) (end 100.33 121.92) (width 0.5) (layer B.Cu) (net 12))
  (segment (start 101.6 119.38) (end 101.6 120.65) (width 0.5) (layer B.Cu) (net 12))
  (segment (start 92.71 99.06) (end 97.79 99.06) (width 0.5) (layer F.Cu) (net 13))
  (segment (start 97.79 99.06) (end 99.06 100.33) (width 0.5) (layer F.Cu) (net 13))
  (segment (start 99.06 100.33) (end 99.06 110.49) (width 0.5) (layer F.Cu) (net 13))
  (segment (start 99.06 110.49) (end 99.06 116.84) (width 0.5) (layer F.Cu) (net 13))
  (segment (start 99.06 116.84) (end 99.06 118.11) (width 0.5) (layer F.Cu) (net 13))
  (segment (start 99.06 118.11) (end 99.06 118.11) (width 0.5) (layer F.Cu) (net 13) (tstamp 61807314))
  (via (at 99.06 118.11) (size 0.9) (drill 0.5) (layers F.Cu B.Cu) (net 13))
  (segment (start 99.06 118.11) (end 99.06 119.38) (width 0.5) (layer B.Cu) (net 13))
  (segment (start 99.06 119.38) (end 97.79 120.65) (width 0.5) (layer B.Cu) (net 13))
  (segment (start 97.79 120.65) (end 86.36 120.65) (width 0.5) (layer B.Cu) (net 13))
  (segment (start 86.36 120.65) (end 82.55 120.65) (width 0.5) (layer B.Cu) (net 13))
  (segment (start 82.55 120.65) (end 80.01 123.19) (width 0.5) (layer B.Cu) (net 13))
  (segment (start 80.01 123.19) (end 80.01 123.19) (width 0.5) (layer B.Cu) (net 13) (tstamp 618074F9))
  (via (at 80.01 123.19) (size 0.9) (drill 0.5) (layers F.Cu B.Cu) (net 13))
  (segment (start 90.17 139.7) (end 90.17 135.89) (width 0.5) (layer F.Cu) (net 13))
  (segment (start 81.28 143.51) (end 86.36 143.51) (width 0.5) (layer F.Cu) (net 13))
  (segment (start 77.47 139.7) (end 81.28 143.51) (width 0.5) (layer F.Cu) (net 13))
  (segment (start 77.47 125.73) (end 77.47 139.7) (width 0.5) (layer F.Cu) (net 13))
  (segment (start 86.36 143.51) (end 90.17 139.7) (width 0.5) (layer F.Cu) (net 13))
  (segment (start 80.01 123.19) (end 77.47 125.73) (width 0.5) (layer F.Cu) (net 13))
  (segment (start 115.57 121.92) (end 115.57 125.73) (width 0.5) (layer F.Cu) (net 19))
  (segment (start 107.95 114.3) (end 115.57 121.92) (width 0.5) (layer F.Cu) (net 19))
  (segment (start 107.95 68.58) (end 107.95 114.3) (width 0.5) (layer F.Cu) (net 19))
  (segment (start 113.03 63.5) (end 107.95 68.58) (width 0.5) (layer F.Cu) (net 19))
  (segment (start 114.3 63.5) (end 113.03 63.5) (width 0.5) (layer F.Cu) (net 19))
  (segment (start 109.22 121.92) (end 113.03 125.73) (width 0.5) (layer F.Cu) (net 20))
  (segment (start 99.06 121.92) (end 109.22 121.92) (width 0.5) (layer F.Cu) (net 20))
  (segment (start 96.52 119.38) (end 99.06 121.92) (width 0.5) (layer F.Cu) (net 20))
  (segment (start 96.52 102.87) (end 96.52 119.38) (width 0.5) (layer F.Cu) (net 20))
  (segment (start 95.25 101.6) (end 96.52 102.87) (width 0.5) (layer F.Cu) (net 20))
  (segment (start 92.71 101.6) (end 95.25 101.6) (width 0.5) (layer F.Cu) (net 20))
  (segment (start 105.41 130.81) (end 110.49 125.73) (width 0.5) (layer F.Cu) (net 21))
  (segment (start 91.44 130.81) (end 105.41 130.81) (width 0.5) (layer F.Cu) (net 21))
  (segment (start 85.09 124.46) (end 91.44 130.81) (width 0.5) (layer F.Cu) (net 21))
  (segment (start 85.09 113.03) (end 85.09 124.46) (width 0.5) (layer F.Cu) (net 21))
  (segment (start 88.9 109.22) (end 85.09 113.03) (width 0.5) (layer F.Cu) (net 21))
  (segment (start 92.71 109.22) (end 88.9 109.22) (width 0.5) (layer F.Cu) (net 21))
  (segment (start 92.71 106.68) (end 92.259991 106.229991) (width 0.5) (layer F.Cu) (net 22))
  (segment (start 92.71 106.68) (end 88.9 106.68) (width 0.5) (layer F.Cu) (net 22))
  (segment (start 88.9 106.68) (end 82.55 113.03) (width 0.5) (layer F.Cu) (net 22))
  (segment (start 82.55 113.03) (end 82.55 125.73) (width 0.5) (layer F.Cu) (net 22))
  (segment (start 82.55 125.73) (end 88.9 132.08) (width 0.5) (layer F.Cu) (net 22))
  (segment (start 88.9 132.08) (end 96.52 132.08) (width 0.5) (layer F.Cu) (net 22))
  (segment (start 96.52 132.08) (end 96.52 132.08) (width 0.5) (layer F.Cu) (net 22) (tstamp 61807676))
  (via (at 96.52 132.08) (size 0.9) (drill 0.5) (layers F.Cu B.Cu) (net 22))
  (segment (start 101.6 132.08) (end 107.95 125.73) (width 0.5) (layer B.Cu) (net 22))
  (segment (start 96.52 132.08) (end 101.6 132.08) (width 0.5) (layer B.Cu) (net 22))
  (segment (start 83.82 60.96) (end 78.74 66.04) (width 0.5) (layer F.Cu) (net 29))
  (segment (start 92.71 60.96) (end 83.82 60.96) (width 0.5) (layer F.Cu) (net 29))
  (segment (start 83.82 63.5) (end 78.74 68.58) (width 0.5) (layer F.Cu) (net 30))
  (segment (start 92.71 63.5) (end 83.82 63.5) (width 0.5) (layer F.Cu) (net 30))
  (segment (start 78.74 71.12) (end 83.82 66.04) (width 0.5) (layer F.Cu) (net 31))
  (segment (start 83.82 66.04) (end 92.71 66.04) (width 0.5) (layer F.Cu) (net 31))
  (segment (start 83.82 68.58) (end 78.74 73.66) (width 0.5) (layer F.Cu) (net 32))
  (segment (start 92.71 68.58) (end 83.82 68.58) (width 0.5) (layer F.Cu) (net 32))
  (segment (start 83.82 71.12) (end 78.74 76.2) (width 0.5) (layer F.Cu) (net 33))
  (segment (start 92.71 71.12) (end 83.82 71.12) (width 0.5) (layer F.Cu) (net 33))
  (segment (start 83.82 73.66) (end 78.74 78.74) (width 0.5) (layer F.Cu) (net 34))
  (segment (start 92.71 73.66) (end 83.82 73.66) (width 0.5) (layer F.Cu) (net 34))
  (segment (start 83.82 76.2) (end 78.74 81.28) (width 0.5) (layer F.Cu) (net 35))
  (segment (start 92.71 76.2) (end 83.82 76.2) (width 0.5) (layer F.Cu) (net 35))
  (segment (start 83.82 78.74) (end 78.74 83.82) (width 0.5) (layer F.Cu) (net 36))
  (segment (start 92.71 78.74) (end 83.82 78.74) (width 0.5) (layer F.Cu) (net 36))
  (segment (start 83.82 81.28) (end 78.74 86.36) (width 0.5) (layer F.Cu) (net 37))
  (segment (start 92.71 81.28) (end 83.82 81.28) (width 0.5) (layer F.Cu) (net 37))
  (segment (start 83.82 83.82) (end 78.74 88.9) (width 0.5) (layer F.Cu) (net 38))
  (segment (start 92.71 83.82) (end 83.82 83.82) (width 0.5) (layer F.Cu) (net 38))
  (segment (start 83.82 86.36) (end 78.74 91.44) (width 0.5) (layer F.Cu) (net 39))
  (segment (start 92.71 86.36) (end 83.82 86.36) (width 0.5) (layer F.Cu) (net 39))
  (segment (start 83.82 88.9) (end 78.74 93.98) (width 0.5) (layer F.Cu) (net 40))
  (segment (start 92.71 88.9) (end 83.82 88.9) (width 0.5) (layer F.Cu) (net 40))
  (segment (start 83.82 91.44) (end 78.74 96.52) (width 0.5) (layer F.Cu) (net 41))
  (segment (start 92.71 91.44) (end 83.82 91.44) (width 0.5) (layer F.Cu) (net 41))
  (segment (start 83.82 104.14) (end 92.71 104.14) (width 0.5) (layer F.Cu) (net 42))
  (segment (start 78.74 99.06) (end 83.82 104.14) (width 0.5) (layer F.Cu) (net 42))
  (segment (start 111.76 106.68) (end 104.14 114.3) (width 0.5) (layer B.Cu) (net 43))
  (segment (start 114.3 106.68) (end 111.76 106.68) (width 0.5) (layer B.Cu) (net 43))
  (segment (start 104.14 114.3) (end 91.44 114.3) (width 0.5) (layer B.Cu) (net 43))
  (segment (start 91.44 114.3) (end 78.74 101.6) (width 0.5) (layer B.Cu) (net 43))
  (segment (start 111.76 109.22) (end 104.14 116.84) (width 0.5) (layer B.Cu) (net 44))
  (segment (start 114.3 109.22) (end 111.76 109.22) (width 0.5) (layer B.Cu) (net 44))
  (segment (start 91.44 116.84) (end 78.74 104.14) (width 0.5) (layer B.Cu) (net 44))
  (segment (start 104.14 116.84) (end 91.44 116.84) (width 0.5) (layer B.Cu) (net 44))
  (segment (start 114.3 104.14) (end 128.27 104.14) (width 0.5) (layer F.Cu) (net 45))
  (segment (start 114.3 101.6) (end 128.27 101.6) (width 0.5) (layer F.Cu) (net 46))
  (segment (start 114.3 99.06) (end 128.27 99.06) (width 0.5) (layer F.Cu) (net 47))
  (segment (start 114.3 96.52) (end 128.27 96.52) (width 0.5) (layer F.Cu) (net 48))
  (segment (start 114.3 93.98) (end 128.27 93.98) (width 0.5) (layer F.Cu) (net 49))
  (segment (start 114.3 91.44) (end 128.27 91.44) (width 0.5) (layer F.Cu) (net 50))
  (segment (start 114.3 88.9) (end 128.27 88.9) (width 0.5) (layer F.Cu) (net 51))
  (segment (start 114.3 86.36) (end 128.27 86.36) (width 0.5) (layer F.Cu) (net 52))
  (segment (start 114.3 83.82) (end 128.27 83.82) (width 0.5) (layer F.Cu) (net 53))
  (segment (start 114.3 81.28) (end 128.27 81.28) (width 0.5) (layer F.Cu) (net 54))
  (segment (start 114.3 78.74) (end 128.27 78.74) (width 0.5) (layer F.Cu) (net 55))
  (segment (start 114.3 76.2) (end 128.27 76.2) (width 0.5) (layer F.Cu) (net 56))
  (segment (start 114.3 73.66) (end 128.27 73.66) (width 0.5) (layer F.Cu) (net 57))
  (segment (start 114.3 71.12) (end 128.27 71.12) (width 0.5) (layer F.Cu) (net 58))
  (segment (start 114.3 68.58) (end 128.27 68.58) (width 0.5) (layer F.Cu) (net 59))
  (segment (start 123.19 60.96) (end 128.27 66.04) (width 0.5) (layer F.Cu) (net 60))
  (segment (start 114.3 60.96) (end 123.19 60.96) (width 0.5) (layer F.Cu) (net 60))

)
