(kicad_pcb (version 20171130) (host pcbnew "(5.1.10)-1")

  (general
    (thickness 1.6)
    (drawings 0)
    (tracks 75)
    (zones 0)
    (modules 6)
    (nets 61)
  )

  (page A4)
  (layers
    (0 F.Cu signal)
    (31 B.Cu signal)
    (32 B.Adhes user)
    (33 F.Adhes user)
    (34 B.Paste user)
    (35 F.Paste user)
    (36 B.SilkS user)
    (37 F.SilkS user)
    (38 B.Mask user)
    (39 F.Mask user)
    (40 Dwgs.User user)
    (41 Cmts.User user)
    (42 Eco1.User user)
    (43 Eco2.User user)
    (44 Edge.Cuts user)
    (45 Margin user)
    (46 B.CrtYd user)
    (47 F.CrtYd user)
    (48 B.Fab user)
    (49 F.Fab user)
  )

  (setup
    (last_trace_width 0.25)
    (trace_clearance 0.2)
    (zone_clearance 0.508)
    (zone_45_only no)
    (trace_min 0.2)
    (via_size 0.8)
    (via_drill 0.4)
    (via_min_size 0.4)
    (via_min_drill 0.3)
    (uvia_size 0.3)
    (uvia_drill 0.1)
    (uvias_allowed no)
    (uvia_min_size 0.2)
    (uvia_min_drill 0.1)
    (edge_width 0.1)
    (segment_width 0.2)
    (pcb_text_width 0.3)
    (pcb_text_size 1.5 1.5)
    (mod_edge_width 0.15)
    (mod_text_size 1 1)
    (mod_text_width 0.15)
    (pad_size 1.524 1.524)
    (pad_drill 0.762)
    (pad_to_mask_clearance 0)
    (aux_axis_origin 0 0)
    (visible_elements FFFFFF7F)
    (pcbplotparams
      (layerselection 0x010fc_ffffffff)
      (usegerberextensions false)
      (usegerberattributes true)
      (usegerberadvancedattributes true)
      (creategerberjobfile true)
      (excludeedgelayer true)
      (linewidth 0.100000)
      (plotframeref false)
      (viasonmask false)
      (mode 1)
      (useauxorigin false)
      (hpglpennumber 1)
      (hpglpenspeed 20)
      (hpglpendiameter 15.000000)
      (psnegative false)
      (psa4output false)
      (plotreference true)
      (plotvalue true)
      (plotinvisibletext false)
      (padsonsilk false)
      (subtractmaskfromsilk false)
      (outputformat 1)
      (mirror false)
      (drillshape 1)
      (scaleselection 1)
      (outputdirectory ""))
  )

  (net 0 "")
  (net 1 "Net-(AIRLIFT_LEFT1-Pad1)")
  (net 2 "Net-(AIRLIFT_LEFT1-Pad2)")
  (net 3 "Net-(AIRLIFT_LEFT1-Pad3)")
  (net 4 SHARED_GND)
  (net 5 "Net-(AIRLIFT_LEFT1-Pad5)")
  (net 6 "Net-(AIRLIFT_LEFT1-Pad6)")
  (net 7 "Net-(AIRLIFT_LEFT1-Pad7)")
  (net 8 "Net-(AIRLIFT_LEFT1-Pad8)")
  (net 9 "Net-(AIRLIFT_LEFT1-Pad9)")
  (net 10 "Net-(AIRLIFT_LEFT1-Pad10)")
  (net 11 GP10)
  (net 12 GP11)
  (net 13 GP12)
  (net 14 "Net-(AIRLIFT_LEFT1-Pad14)")
  (net 15 "Net-(AIRLIFT_LEFT1-Pad15)")
  (net 16 "Net-(AIRLIFT_LEFT1-Pad16)")
  (net 17 "Net-(AIRLIFT_RIGHT1-Pad1)")
  (net 18 "Net-(AIRLIFT_RIGHT1-Pad2)")
  (net 19 VSYS)
  (net 20 GP13)
  (net 21 GP15)
  (net 22 GP14)
  (net 23 "Net-(AIRLIFT_RIGHT1-Pad7)")
  (net 24 "Net-(AIRLIFT_RIGHT1-Pad8)")
  (net 25 "Net-(AIRLIFT_RIGHT1-Pad9)")
  (net 26 "Net-(AIRLIFT_RIGHT1-Pad10)")
  (net 27 "Net-(AIRLIFT_RIGHT1-Pad11)")
  (net 28 "Net-(AIRLIFT_RIGHT1-Pad12)")
  (net 29 GP0)
  (net 30 GP1)
  (net 31 GND1)
  (net 32 GP2)
  (net 33 GP3)
  (net 34 GP4)
  (net 35 GP5)
  (net 36 GND2)
  (net 37 GP6)
  (net 38 GP7)
  (net 39 GP8)
  (net 40 GP9)
  (net 41 GND3)
  (net 42 GP16)
  (net 43 GP17)
  (net 44 GND4)
  (net 45 GND7)
  (net 46 GP18)
  (net 47 GP19)
  (net 48 GP20)
  (net 49 GP21)
  (net 50 GND6)
  (net 51 GP22)
  (net 52 GP26)
  (net 53 GP27)
  (net 54 GP28)
  (net 55 GND5)
  (net 56 RUN)
  (net 57 ADC_VREF)
  (net 58 3V3_OUT)
  (net 59 3V3_EN)
  (net 60 VBUS)

  (net_class Default "This is the default net class."
    (clearance 0.2)
    (trace_width 0.25)
    (via_dia 0.8)
    (via_drill 0.4)
    (uvia_dia 0.3)
    (uvia_drill 0.1)
    (add_net 3V3_EN)
    (add_net 3V3_OUT)
    (add_net ADC_VREF)
    (add_net GND1)
    (add_net GND2)
    (add_net GND3)
    (add_net GND4)
    (add_net GND5)
    (add_net GND6)
    (add_net GND7)
    (add_net GP0)
    (add_net GP1)
    (add_net GP10)
    (add_net GP11)
    (add_net GP12)
    (add_net GP13)
    (add_net GP14)
    (add_net GP15)
    (add_net GP16)
    (add_net GP17)
    (add_net GP18)
    (add_net GP19)
    (add_net GP2)
    (add_net GP20)
    (add_net GP21)
    (add_net GP22)
    (add_net GP26)
    (add_net GP27)
    (add_net GP28)
    (add_net GP3)
    (add_net GP4)
    (add_net GP5)
    (add_net GP6)
    (add_net GP7)
    (add_net GP8)
    (add_net GP9)
    (add_net "Net-(AIRLIFT_LEFT1-Pad1)")
    (add_net "Net-(AIRLIFT_LEFT1-Pad10)")
    (add_net "Net-(AIRLIFT_LEFT1-Pad14)")
    (add_net "Net-(AIRLIFT_LEFT1-Pad15)")
    (add_net "Net-(AIRLIFT_LEFT1-Pad16)")
    (add_net "Net-(AIRLIFT_LEFT1-Pad2)")
    (add_net "Net-(AIRLIFT_LEFT1-Pad3)")
    (add_net "Net-(AIRLIFT_LEFT1-Pad5)")
    (add_net "Net-(AIRLIFT_LEFT1-Pad6)")
    (add_net "Net-(AIRLIFT_LEFT1-Pad7)")
    (add_net "Net-(AIRLIFT_LEFT1-Pad8)")
    (add_net "Net-(AIRLIFT_LEFT1-Pad9)")
    (add_net "Net-(AIRLIFT_RIGHT1-Pad1)")
    (add_net "Net-(AIRLIFT_RIGHT1-Pad10)")
    (add_net "Net-(AIRLIFT_RIGHT1-Pad11)")
    (add_net "Net-(AIRLIFT_RIGHT1-Pad12)")
    (add_net "Net-(AIRLIFT_RIGHT1-Pad2)")
    (add_net "Net-(AIRLIFT_RIGHT1-Pad7)")
    (add_net "Net-(AIRLIFT_RIGHT1-Pad8)")
    (add_net "Net-(AIRLIFT_RIGHT1-Pad9)")
    (add_net RUN)
    (add_net SHARED_GND)
    (add_net VBUS)
    (add_net VSYS)
  )

  (module Connector_PinSocket_2.54mm:PinSocket_1x16_P2.54mm_Vertical (layer F.Cu) (tedit 5A19A41E) (tstamp 61805622)
    (at 210.82 86.36)
    (descr "Through hole straight socket strip, 1x16, 2.54mm pitch, single row (from Kicad 4.0.7), script generated")
    (tags "Through hole socket strip THT 1x16 2.54mm single row")
    (path /61822077)
    (fp_text reference AIRLIFT_LEFT1 (at 0 -2.77) (layer F.SilkS)
      (effects (font (size 1 1) (thickness 0.15)))
    )
    (fp_text value Conn_01x16 (at 0 40.87) (layer F.Fab)
      (effects (font (size 1 1) (thickness 0.15)))
    )
    (fp_line (start -1.8 39.9) (end -1.8 -1.8) (layer F.CrtYd) (width 0.05))
    (fp_line (start 1.75 39.9) (end -1.8 39.9) (layer F.CrtYd) (width 0.05))
    (fp_line (start 1.75 -1.8) (end 1.75 39.9) (layer F.CrtYd) (width 0.05))
    (fp_line (start -1.8 -1.8) (end 1.75 -1.8) (layer F.CrtYd) (width 0.05))
    (fp_line (start 0 -1.33) (end 1.33 -1.33) (layer F.SilkS) (width 0.12))
    (fp_line (start 1.33 -1.33) (end 1.33 0) (layer F.SilkS) (width 0.12))
    (fp_line (start 1.33 1.27) (end 1.33 39.43) (layer F.SilkS) (width 0.12))
    (fp_line (start -1.33 39.43) (end 1.33 39.43) (layer F.SilkS) (width 0.12))
    (fp_line (start -1.33 1.27) (end -1.33 39.43) (layer F.SilkS) (width 0.12))
    (fp_line (start -1.33 1.27) (end 1.33 1.27) (layer F.SilkS) (width 0.12))
    (fp_line (start -1.27 39.37) (end -1.27 -1.27) (layer F.Fab) (width 0.1))
    (fp_line (start 1.27 39.37) (end -1.27 39.37) (layer F.Fab) (width 0.1))
    (fp_line (start 1.27 -0.635) (end 1.27 39.37) (layer F.Fab) (width 0.1))
    (fp_line (start 0.635 -1.27) (end 1.27 -0.635) (layer F.Fab) (width 0.1))
    (fp_line (start -1.27 -1.27) (end 0.635 -1.27) (layer F.Fab) (width 0.1))
    (fp_text user %R (at 0 19.05 90) (layer F.Fab)
      (effects (font (size 1 1) (thickness 0.15)))
    )
    (pad 1 thru_hole rect (at 0 0) (size 1.7 1.7) (drill 1) (layers *.Cu *.Mask)
      (net 1 "Net-(AIRLIFT_LEFT1-Pad1)"))
    (pad 2 thru_hole oval (at 0 2.54) (size 1.7 1.7) (drill 1) (layers *.Cu *.Mask)
      (net 2 "Net-(AIRLIFT_LEFT1-Pad2)"))
    (pad 3 thru_hole oval (at 0 5.08) (size 1.7 1.7) (drill 1) (layers *.Cu *.Mask)
      (net 3 "Net-(AIRLIFT_LEFT1-Pad3)"))
    (pad 4 thru_hole oval (at 0 7.62) (size 1.7 1.7) (drill 1) (layers *.Cu *.Mask)
      (net 4 SHARED_GND))
    (pad 5 thru_hole oval (at 0 10.16) (size 1.7 1.7) (drill 1) (layers *.Cu *.Mask)
      (net 5 "Net-(AIRLIFT_LEFT1-Pad5)"))
    (pad 6 thru_hole oval (at 0 12.7) (size 1.7 1.7) (drill 1) (layers *.Cu *.Mask)
      (net 6 "Net-(AIRLIFT_LEFT1-Pad6)"))
    (pad 7 thru_hole oval (at 0 15.24) (size 1.7 1.7) (drill 1) (layers *.Cu *.Mask)
      (net 7 "Net-(AIRLIFT_LEFT1-Pad7)"))
    (pad 8 thru_hole oval (at 0 17.78) (size 1.7 1.7) (drill 1) (layers *.Cu *.Mask)
      (net 8 "Net-(AIRLIFT_LEFT1-Pad8)"))
    (pad 9 thru_hole oval (at 0 20.32) (size 1.7 1.7) (drill 1) (layers *.Cu *.Mask)
      (net 9 "Net-(AIRLIFT_LEFT1-Pad9)"))
    (pad 10 thru_hole oval (at 0 22.86) (size 1.7 1.7) (drill 1) (layers *.Cu *.Mask)
      (net 10 "Net-(AIRLIFT_LEFT1-Pad10)"))
    (pad 11 thru_hole oval (at 0 25.4) (size 1.7 1.7) (drill 1) (layers *.Cu *.Mask)
      (net 11 GP10))
    (pad 12 thru_hole oval (at 0 27.94) (size 1.7 1.7) (drill 1) (layers *.Cu *.Mask)
      (net 12 GP11))
    (pad 13 thru_hole oval (at 0 30.48) (size 1.7 1.7) (drill 1) (layers *.Cu *.Mask)
      (net 13 GP12))
    (pad 14 thru_hole oval (at 0 33.02) (size 1.7 1.7) (drill 1) (layers *.Cu *.Mask)
      (net 14 "Net-(AIRLIFT_LEFT1-Pad14)"))
    (pad 15 thru_hole oval (at 0 35.56) (size 1.7 1.7) (drill 1) (layers *.Cu *.Mask)
      (net 15 "Net-(AIRLIFT_LEFT1-Pad15)"))
    (pad 16 thru_hole oval (at 0 38.1) (size 1.7 1.7) (drill 1) (layers *.Cu *.Mask)
      (net 16 "Net-(AIRLIFT_LEFT1-Pad16)"))
    (model ${KISYS3DMOD}/Connector_PinSocket_2.54mm.3dshapes/PinSocket_1x16_P2.54mm_Vertical.wrl
      (at (xyz 0 0 0))
      (scale (xyz 1 1 1))
      (rotate (xyz 0 0 0))
    )
  )

  (module Connector_PinSocket_2.54mm:PinSocket_1x12_P2.54mm_Vertical (layer F.Cu) (tedit 5A19A41D) (tstamp 61805642)
    (at 229.87 96.52)
    (descr "Through hole straight socket strip, 1x12, 2.54mm pitch, single row (from Kicad 4.0.7), script generated")
    (tags "Through hole socket strip THT 1x12 2.54mm single row")
    (path /61811928)
    (fp_text reference AIRLIFT_RIGHT1 (at 0 -2.77) (layer F.SilkS)
      (effects (font (size 1 1) (thickness 0.15)))
    )
    (fp_text value Conn_01x12 (at 0 30.71) (layer F.Fab)
      (effects (font (size 1 1) (thickness 0.15)))
    )
    (fp_line (start -1.8 29.7) (end -1.8 -1.8) (layer F.CrtYd) (width 0.05))
    (fp_line (start 1.75 29.7) (end -1.8 29.7) (layer F.CrtYd) (width 0.05))
    (fp_line (start 1.75 -1.8) (end 1.75 29.7) (layer F.CrtYd) (width 0.05))
    (fp_line (start -1.8 -1.8) (end 1.75 -1.8) (layer F.CrtYd) (width 0.05))
    (fp_line (start 0 -1.33) (end 1.33 -1.33) (layer F.SilkS) (width 0.12))
    (fp_line (start 1.33 -1.33) (end 1.33 0) (layer F.SilkS) (width 0.12))
    (fp_line (start 1.33 1.27) (end 1.33 29.27) (layer F.SilkS) (width 0.12))
    (fp_line (start -1.33 29.27) (end 1.33 29.27) (layer F.SilkS) (width 0.12))
    (fp_line (start -1.33 1.27) (end -1.33 29.27) (layer F.SilkS) (width 0.12))
    (fp_line (start -1.33 1.27) (end 1.33 1.27) (layer F.SilkS) (width 0.12))
    (fp_line (start -1.27 29.21) (end -1.27 -1.27) (layer F.Fab) (width 0.1))
    (fp_line (start 1.27 29.21) (end -1.27 29.21) (layer F.Fab) (width 0.1))
    (fp_line (start 1.27 -0.635) (end 1.27 29.21) (layer F.Fab) (width 0.1))
    (fp_line (start 0.635 -1.27) (end 1.27 -0.635) (layer F.Fab) (width 0.1))
    (fp_line (start -1.27 -1.27) (end 0.635 -1.27) (layer F.Fab) (width 0.1))
    (fp_text user %R (at 0 13.97 90) (layer F.Fab)
      (effects (font (size 1 1) (thickness 0.15)))
    )
    (pad 1 thru_hole rect (at 0 0) (size 1.7 1.7) (drill 1) (layers *.Cu *.Mask)
      (net 17 "Net-(AIRLIFT_RIGHT1-Pad1)"))
    (pad 2 thru_hole oval (at 0 2.54) (size 1.7 1.7) (drill 1) (layers *.Cu *.Mask)
      (net 18 "Net-(AIRLIFT_RIGHT1-Pad2)"))
    (pad 3 thru_hole oval (at 0 5.08) (size 1.7 1.7) (drill 1) (layers *.Cu *.Mask)
      (net 19 VSYS))
    (pad 4 thru_hole oval (at 0 7.62) (size 1.7 1.7) (drill 1) (layers *.Cu *.Mask)
      (net 20 GP13))
    (pad 5 thru_hole oval (at 0 10.16) (size 1.7 1.7) (drill 1) (layers *.Cu *.Mask)
      (net 21 GP15))
    (pad 6 thru_hole oval (at 0 12.7) (size 1.7 1.7) (drill 1) (layers *.Cu *.Mask)
      (net 22 GP14))
    (pad 7 thru_hole oval (at 0 15.24) (size 1.7 1.7) (drill 1) (layers *.Cu *.Mask)
      (net 23 "Net-(AIRLIFT_RIGHT1-Pad7)"))
    (pad 8 thru_hole oval (at 0 17.78) (size 1.7 1.7) (drill 1) (layers *.Cu *.Mask)
      (net 24 "Net-(AIRLIFT_RIGHT1-Pad8)"))
    (pad 9 thru_hole oval (at 0 20.32) (size 1.7 1.7) (drill 1) (layers *.Cu *.Mask)
      (net 25 "Net-(AIRLIFT_RIGHT1-Pad9)"))
    (pad 10 thru_hole oval (at 0 22.86) (size 1.7 1.7) (drill 1) (layers *.Cu *.Mask)
      (net 26 "Net-(AIRLIFT_RIGHT1-Pad10)"))
    (pad 11 thru_hole oval (at 0 25.4) (size 1.7 1.7) (drill 1) (layers *.Cu *.Mask)
      (net 27 "Net-(AIRLIFT_RIGHT1-Pad11)"))
    (pad 12 thru_hole oval (at 0 27.94) (size 1.7 1.7) (drill 1) (layers *.Cu *.Mask)
      (net 28 "Net-(AIRLIFT_RIGHT1-Pad12)"))
    (model ${KISYS3DMOD}/Connector_PinSocket_2.54mm.3dshapes/PinSocket_1x12_P2.54mm_Vertical.wrl
      (at (xyz 0 0 0))
      (scale (xyz 1 1 1))
      (rotate (xyz 0 0 0))
    )
  )

  (module Connector_PinHeader_2.54mm:PinHeader_1x16_P2.54mm_Vertical (layer F.Cu) (tedit 59FED5CC) (tstamp 61805666)
    (at 77.47 86.36)
    (descr "Through hole straight pin header, 1x16, 2.54mm pitch, single row")
    (tags "Through hole pin header THT 1x16 2.54mm single row")
    (path /6180F8D6)
    (fp_text reference PIN_LEFT1 (at 0 -2.33) (layer F.SilkS)
      (effects (font (size 1 1) (thickness 0.15)))
    )
    (fp_text value Conn_01x16 (at 0 40.43) (layer F.Fab)
      (effects (font (size 1 1) (thickness 0.15)))
    )
    (fp_line (start 1.8 -1.8) (end -1.8 -1.8) (layer F.CrtYd) (width 0.05))
    (fp_line (start 1.8 39.9) (end 1.8 -1.8) (layer F.CrtYd) (width 0.05))
    (fp_line (start -1.8 39.9) (end 1.8 39.9) (layer F.CrtYd) (width 0.05))
    (fp_line (start -1.8 -1.8) (end -1.8 39.9) (layer F.CrtYd) (width 0.05))
    (fp_line (start -1.33 -1.33) (end 0 -1.33) (layer F.SilkS) (width 0.12))
    (fp_line (start -1.33 0) (end -1.33 -1.33) (layer F.SilkS) (width 0.12))
    (fp_line (start -1.33 1.27) (end 1.33 1.27) (layer F.SilkS) (width 0.12))
    (fp_line (start 1.33 1.27) (end 1.33 39.43) (layer F.SilkS) (width 0.12))
    (fp_line (start -1.33 1.27) (end -1.33 39.43) (layer F.SilkS) (width 0.12))
    (fp_line (start -1.33 39.43) (end 1.33 39.43) (layer F.SilkS) (width 0.12))
    (fp_line (start -1.27 -0.635) (end -0.635 -1.27) (layer F.Fab) (width 0.1))
    (fp_line (start -1.27 39.37) (end -1.27 -0.635) (layer F.Fab) (width 0.1))
    (fp_line (start 1.27 39.37) (end -1.27 39.37) (layer F.Fab) (width 0.1))
    (fp_line (start 1.27 -1.27) (end 1.27 39.37) (layer F.Fab) (width 0.1))
    (fp_line (start -0.635 -1.27) (end 1.27 -1.27) (layer F.Fab) (width 0.1))
    (fp_text user %R (at 0 19.05 90) (layer F.Fab)
      (effects (font (size 1 1) (thickness 0.15)))
    )
    (pad 1 thru_hole rect (at 0 0) (size 1.7 1.7) (drill 1) (layers *.Cu *.Mask)
      (net 29 GP0))
    (pad 2 thru_hole oval (at 0 2.54) (size 1.7 1.7) (drill 1) (layers *.Cu *.Mask)
      (net 30 GP1))
    (pad 3 thru_hole oval (at 0 5.08) (size 1.7 1.7) (drill 1) (layers *.Cu *.Mask)
      (net 31 GND1))
    (pad 4 thru_hole oval (at 0 7.62) (size 1.7 1.7) (drill 1) (layers *.Cu *.Mask)
      (net 32 GP2))
    (pad 5 thru_hole oval (at 0 10.16) (size 1.7 1.7) (drill 1) (layers *.Cu *.Mask)
      (net 33 GP3))
    (pad 6 thru_hole oval (at 0 12.7) (size 1.7 1.7) (drill 1) (layers *.Cu *.Mask)
      (net 34 GP4))
    (pad 7 thru_hole oval (at 0 15.24) (size 1.7 1.7) (drill 1) (layers *.Cu *.Mask)
      (net 35 GP5))
    (pad 8 thru_hole oval (at 0 17.78) (size 1.7 1.7) (drill 1) (layers *.Cu *.Mask)
      (net 36 GND2))
    (pad 9 thru_hole oval (at 0 20.32) (size 1.7 1.7) (drill 1) (layers *.Cu *.Mask)
      (net 37 GP6))
    (pad 10 thru_hole oval (at 0 22.86) (size 1.7 1.7) (drill 1) (layers *.Cu *.Mask)
      (net 38 GP7))
    (pad 11 thru_hole oval (at 0 25.4) (size 1.7 1.7) (drill 1) (layers *.Cu *.Mask)
      (net 39 GP8))
    (pad 12 thru_hole oval (at 0 27.94) (size 1.7 1.7) (drill 1) (layers *.Cu *.Mask)
      (net 40 GP9))
    (pad 13 thru_hole oval (at 0 30.48) (size 1.7 1.7) (drill 1) (layers *.Cu *.Mask)
      (net 41 GND3))
    (pad 14 thru_hole oval (at 0 33.02) (size 1.7 1.7) (drill 1) (layers *.Cu *.Mask)
      (net 42 GP16))
    (pad 15 thru_hole oval (at 0 35.56) (size 1.7 1.7) (drill 1) (layers *.Cu *.Mask)
      (net 43 GP17))
    (pad 16 thru_hole oval (at 0 38.1) (size 1.7 1.7) (drill 1) (layers *.Cu *.Mask)
      (net 44 GND4))
    (model ${KISYS3DMOD}/Connector_PinHeader_2.54mm.3dshapes/PinHeader_1x16_P2.54mm_Vertical.wrl
      (at (xyz 0 0 0))
      (scale (xyz 1 1 1))
      (rotate (xyz 0 0 0))
    )
  )

  (module Connector_PinHeader_2.54mm:PinHeader_1x16_P2.54mm_Vertical (layer F.Cu) (tedit 59FED5CC) (tstamp 6180568A)
    (at 152.4 81.28)
    (descr "Through hole straight pin header, 1x16, 2.54mm pitch, single row")
    (tags "Through hole pin header THT 1x16 2.54mm single row")
    (path /618129A5)
    (fp_text reference PIN_RIGHT1 (at 0 -2.33) (layer F.SilkS)
      (effects (font (size 1 1) (thickness 0.15)))
    )
    (fp_text value Conn_01x16 (at 0 40.43) (layer F.Fab)
      (effects (font (size 1 1) (thickness 0.15)))
    )
    (fp_text user %R (at 0 19.05 90) (layer F.Fab)
      (effects (font (size 1 1) (thickness 0.15)))
    )
    (fp_line (start -0.635 -1.27) (end 1.27 -1.27) (layer F.Fab) (width 0.1))
    (fp_line (start 1.27 -1.27) (end 1.27 39.37) (layer F.Fab) (width 0.1))
    (fp_line (start 1.27 39.37) (end -1.27 39.37) (layer F.Fab) (width 0.1))
    (fp_line (start -1.27 39.37) (end -1.27 -0.635) (layer F.Fab) (width 0.1))
    (fp_line (start -1.27 -0.635) (end -0.635 -1.27) (layer F.Fab) (width 0.1))
    (fp_line (start -1.33 39.43) (end 1.33 39.43) (layer F.SilkS) (width 0.12))
    (fp_line (start -1.33 1.27) (end -1.33 39.43) (layer F.SilkS) (width 0.12))
    (fp_line (start 1.33 1.27) (end 1.33 39.43) (layer F.SilkS) (width 0.12))
    (fp_line (start -1.33 1.27) (end 1.33 1.27) (layer F.SilkS) (width 0.12))
    (fp_line (start -1.33 0) (end -1.33 -1.33) (layer F.SilkS) (width 0.12))
    (fp_line (start -1.33 -1.33) (end 0 -1.33) (layer F.SilkS) (width 0.12))
    (fp_line (start -1.8 -1.8) (end -1.8 39.9) (layer F.CrtYd) (width 0.05))
    (fp_line (start -1.8 39.9) (end 1.8 39.9) (layer F.CrtYd) (width 0.05))
    (fp_line (start 1.8 39.9) (end 1.8 -1.8) (layer F.CrtYd) (width 0.05))
    (fp_line (start 1.8 -1.8) (end -1.8 -1.8) (layer F.CrtYd) (width 0.05))
    (pad 16 thru_hole oval (at 0 38.1) (size 1.7 1.7) (drill 1) (layers *.Cu *.Mask)
      (net 45 GND7))
    (pad 15 thru_hole oval (at 0 35.56) (size 1.7 1.7) (drill 1) (layers *.Cu *.Mask)
      (net 46 GP18))
    (pad 14 thru_hole oval (at 0 33.02) (size 1.7 1.7) (drill 1) (layers *.Cu *.Mask)
      (net 47 GP19))
    (pad 13 thru_hole oval (at 0 30.48) (size 1.7 1.7) (drill 1) (layers *.Cu *.Mask)
      (net 48 GP20))
    (pad 12 thru_hole oval (at 0 27.94) (size 1.7 1.7) (drill 1) (layers *.Cu *.Mask)
      (net 49 GP21))
    (pad 11 thru_hole oval (at 0 25.4) (size 1.7 1.7) (drill 1) (layers *.Cu *.Mask)
      (net 50 GND6))
    (pad 10 thru_hole oval (at 0 22.86) (size 1.7 1.7) (drill 1) (layers *.Cu *.Mask)
      (net 51 GP22))
    (pad 9 thru_hole oval (at 0 20.32) (size 1.7 1.7) (drill 1) (layers *.Cu *.Mask)
      (net 52 GP26))
    (pad 8 thru_hole oval (at 0 17.78) (size 1.7 1.7) (drill 1) (layers *.Cu *.Mask)
      (net 53 GP27))
    (pad 7 thru_hole oval (at 0 15.24) (size 1.7 1.7) (drill 1) (layers *.Cu *.Mask)
      (net 54 GP28))
    (pad 6 thru_hole oval (at 0 12.7) (size 1.7 1.7) (drill 1) (layers *.Cu *.Mask)
      (net 55 GND5))
    (pad 5 thru_hole oval (at 0 10.16) (size 1.7 1.7) (drill 1) (layers *.Cu *.Mask)
      (net 56 RUN))
    (pad 4 thru_hole oval (at 0 7.62) (size 1.7 1.7) (drill 1) (layers *.Cu *.Mask)
      (net 57 ADC_VREF))
    (pad 3 thru_hole oval (at 0 5.08) (size 1.7 1.7) (drill 1) (layers *.Cu *.Mask)
      (net 58 3V3_OUT))
    (pad 2 thru_hole oval (at 0 2.54) (size 1.7 1.7) (drill 1) (layers *.Cu *.Mask)
      (net 59 3V3_EN))
    (pad 1 thru_hole rect (at 0 0) (size 1.7 1.7) (drill 1) (layers *.Cu *.Mask)
      (net 60 VBUS))
    (model ${KISYS3DMOD}/Connector_PinHeader_2.54mm.3dshapes/PinHeader_1x16_P2.54mm_Vertical.wrl
      (at (xyz 0 0 0))
      (scale (xyz 1 1 1))
      (rotate (xyz 0 0 0))
    )
  )

  (module Connector_PinSocket_2.54mm:PinSocket_1x20_P2.54mm_Vertical (layer F.Cu) (tedit 5A19A41E) (tstamp 618056B2)
    (at 96.52 76.2)
    (descr "Through hole straight socket strip, 1x20, 2.54mm pitch, single row (from Kicad 4.0.7), script generated")
    (tags "Through hole socket strip THT 1x20 2.54mm single row")
    (path /61827E07)
    (fp_text reference RPI_LEFT1 (at 0 -2.77) (layer F.SilkS)
      (effects (font (size 1 1) (thickness 0.15)))
    )
    (fp_text value Conn_01x20 (at 0 51.03) (layer F.Fab)
      (effects (font (size 1 1) (thickness 0.15)))
    )
    (fp_text user %R (at 0 24.13 90) (layer F.Fab)
      (effects (font (size 1 1) (thickness 0.15)))
    )
    (fp_line (start -1.27 -1.27) (end 0.635 -1.27) (layer F.Fab) (width 0.1))
    (fp_line (start 0.635 -1.27) (end 1.27 -0.635) (layer F.Fab) (width 0.1))
    (fp_line (start 1.27 -0.635) (end 1.27 49.53) (layer F.Fab) (width 0.1))
    (fp_line (start 1.27 49.53) (end -1.27 49.53) (layer F.Fab) (width 0.1))
    (fp_line (start -1.27 49.53) (end -1.27 -1.27) (layer F.Fab) (width 0.1))
    (fp_line (start -1.33 1.27) (end 1.33 1.27) (layer F.SilkS) (width 0.12))
    (fp_line (start -1.33 1.27) (end -1.33 49.59) (layer F.SilkS) (width 0.12))
    (fp_line (start -1.33 49.59) (end 1.33 49.59) (layer F.SilkS) (width 0.12))
    (fp_line (start 1.33 1.27) (end 1.33 49.59) (layer F.SilkS) (width 0.12))
    (fp_line (start 1.33 -1.33) (end 1.33 0) (layer F.SilkS) (width 0.12))
    (fp_line (start 0 -1.33) (end 1.33 -1.33) (layer F.SilkS) (width 0.12))
    (fp_line (start -1.8 -1.8) (end 1.75 -1.8) (layer F.CrtYd) (width 0.05))
    (fp_line (start 1.75 -1.8) (end 1.75 50) (layer F.CrtYd) (width 0.05))
    (fp_line (start 1.75 50) (end -1.8 50) (layer F.CrtYd) (width 0.05))
    (fp_line (start -1.8 50) (end -1.8 -1.8) (layer F.CrtYd) (width 0.05))
    (pad 20 thru_hole oval (at 0 48.26) (size 1.7 1.7) (drill 1) (layers *.Cu *.Mask)
      (net 21 GP15))
    (pad 19 thru_hole oval (at 0 45.72) (size 1.7 1.7) (drill 1) (layers *.Cu *.Mask)
      (net 22 GP14))
    (pad 18 thru_hole oval (at 0 43.18) (size 1.7 1.7) (drill 1) (layers *.Cu *.Mask)
      (net 44 GND4))
    (pad 17 thru_hole oval (at 0 40.64) (size 1.7 1.7) (drill 1) (layers *.Cu *.Mask)
      (net 20 GP13))
    (pad 16 thru_hole oval (at 0 38.1) (size 1.7 1.7) (drill 1) (layers *.Cu *.Mask)
      (net 13 GP12))
    (pad 15 thru_hole oval (at 0 35.56) (size 1.7 1.7) (drill 1) (layers *.Cu *.Mask)
      (net 12 GP11))
    (pad 14 thru_hole oval (at 0 33.02) (size 1.7 1.7) (drill 1) (layers *.Cu *.Mask)
      (net 11 GP10))
    (pad 13 thru_hole oval (at 0 30.48) (size 1.7 1.7) (drill 1) (layers *.Cu *.Mask)
      (net 41 GND3))
    (pad 12 thru_hole oval (at 0 27.94) (size 1.7 1.7) (drill 1) (layers *.Cu *.Mask)
      (net 40 GP9))
    (pad 11 thru_hole oval (at 0 25.4) (size 1.7 1.7) (drill 1) (layers *.Cu *.Mask)
      (net 39 GP8))
    (pad 10 thru_hole oval (at 0 22.86) (size 1.7 1.7) (drill 1) (layers *.Cu *.Mask)
      (net 38 GP7))
    (pad 9 thru_hole oval (at 0 20.32) (size 1.7 1.7) (drill 1) (layers *.Cu *.Mask)
      (net 37 GP6))
    (pad 8 thru_hole oval (at 0 17.78) (size 1.7 1.7) (drill 1) (layers *.Cu *.Mask)
      (net 36 GND2))
    (pad 7 thru_hole oval (at 0 15.24) (size 1.7 1.7) (drill 1) (layers *.Cu *.Mask)
      (net 35 GP5))
    (pad 6 thru_hole oval (at 0 12.7) (size 1.7 1.7) (drill 1) (layers *.Cu *.Mask)
      (net 34 GP4))
    (pad 5 thru_hole oval (at 0 10.16) (size 1.7 1.7) (drill 1) (layers *.Cu *.Mask)
      (net 33 GP3))
    (pad 4 thru_hole oval (at 0 7.62) (size 1.7 1.7) (drill 1) (layers *.Cu *.Mask)
      (net 32 GP2))
    (pad 3 thru_hole oval (at 0 5.08) (size 1.7 1.7) (drill 1) (layers *.Cu *.Mask)
      (net 31 GND1))
    (pad 2 thru_hole oval (at 0 2.54) (size 1.7 1.7) (drill 1) (layers *.Cu *.Mask)
      (net 30 GP1))
    (pad 1 thru_hole rect (at 0 0) (size 1.7 1.7) (drill 1) (layers *.Cu *.Mask)
      (net 29 GP0))
    (model ${KISYS3DMOD}/Connector_PinSocket_2.54mm.3dshapes/PinSocket_1x20_P2.54mm_Vertical.wrl
      (at (xyz 0 0 0))
      (scale (xyz 1 1 1))
      (rotate (xyz 0 0 0))
    )
  )

  (module Connector_PinSocket_2.54mm:PinSocket_1x20_P2.54mm_Vertical (layer F.Cu) (tedit 5A19A41E) (tstamp 618056DA)
    (at 120.65 76.2)
    (descr "Through hole straight socket strip, 1x20, 2.54mm pitch, single row (from Kicad 4.0.7), script generated")
    (tags "Through hole socket strip THT 1x20 2.54mm single row")
    (path /6180FEB4)
    (fp_text reference RPI_RIGHT1 (at 0 -2.77) (layer F.SilkS)
      (effects (font (size 1 1) (thickness 0.15)))
    )
    (fp_text value Conn_01x20 (at 0 51.03) (layer F.Fab)
      (effects (font (size 1 1) (thickness 0.15)))
    )
    (fp_line (start -1.8 50) (end -1.8 -1.8) (layer F.CrtYd) (width 0.05))
    (fp_line (start 1.75 50) (end -1.8 50) (layer F.CrtYd) (width 0.05))
    (fp_line (start 1.75 -1.8) (end 1.75 50) (layer F.CrtYd) (width 0.05))
    (fp_line (start -1.8 -1.8) (end 1.75 -1.8) (layer F.CrtYd) (width 0.05))
    (fp_line (start 0 -1.33) (end 1.33 -1.33) (layer F.SilkS) (width 0.12))
    (fp_line (start 1.33 -1.33) (end 1.33 0) (layer F.SilkS) (width 0.12))
    (fp_line (start 1.33 1.27) (end 1.33 49.59) (layer F.SilkS) (width 0.12))
    (fp_line (start -1.33 49.59) (end 1.33 49.59) (layer F.SilkS) (width 0.12))
    (fp_line (start -1.33 1.27) (end -1.33 49.59) (layer F.SilkS) (width 0.12))
    (fp_line (start -1.33 1.27) (end 1.33 1.27) (layer F.SilkS) (width 0.12))
    (fp_line (start -1.27 49.53) (end -1.27 -1.27) (layer F.Fab) (width 0.1))
    (fp_line (start 1.27 49.53) (end -1.27 49.53) (layer F.Fab) (width 0.1))
    (fp_line (start 1.27 -0.635) (end 1.27 49.53) (layer F.Fab) (width 0.1))
    (fp_line (start 0.635 -1.27) (end 1.27 -0.635) (layer F.Fab) (width 0.1))
    (fp_line (start -1.27 -1.27) (end 0.635 -1.27) (layer F.Fab) (width 0.1))
    (fp_text user %R (at 0 24.13 90) (layer F.Fab)
      (effects (font (size 1 1) (thickness 0.15)))
    )
    (pad 1 thru_hole rect (at 0 0) (size 1.7 1.7) (drill 1) (layers *.Cu *.Mask)
      (net 60 VBUS))
    (pad 2 thru_hole oval (at 0 2.54) (size 1.7 1.7) (drill 1) (layers *.Cu *.Mask)
      (net 19 VSYS))
    (pad 3 thru_hole oval (at 0 5.08) (size 1.7 1.7) (drill 1) (layers *.Cu *.Mask)
      (net 4 SHARED_GND))
    (pad 4 thru_hole oval (at 0 7.62) (size 1.7 1.7) (drill 1) (layers *.Cu *.Mask)
      (net 59 3V3_EN))
    (pad 5 thru_hole oval (at 0 10.16) (size 1.7 1.7) (drill 1) (layers *.Cu *.Mask)
      (net 58 3V3_OUT))
    (pad 6 thru_hole oval (at 0 12.7) (size 1.7 1.7) (drill 1) (layers *.Cu *.Mask)
      (net 57 ADC_VREF))
    (pad 7 thru_hole oval (at 0 15.24) (size 1.7 1.7) (drill 1) (layers *.Cu *.Mask)
      (net 54 GP28))
    (pad 8 thru_hole oval (at 0 17.78) (size 1.7 1.7) (drill 1) (layers *.Cu *.Mask)
      (net 55 GND5))
    (pad 9 thru_hole oval (at 0 20.32) (size 1.7 1.7) (drill 1) (layers *.Cu *.Mask)
      (net 53 GP27))
    (pad 10 thru_hole oval (at 0 22.86) (size 1.7 1.7) (drill 1) (layers *.Cu *.Mask)
      (net 52 GP26))
    (pad 11 thru_hole oval (at 0 25.4) (size 1.7 1.7) (drill 1) (layers *.Cu *.Mask)
      (net 56 RUN))
    (pad 12 thru_hole oval (at 0 27.94) (size 1.7 1.7) (drill 1) (layers *.Cu *.Mask)
      (net 51 GP22))
    (pad 13 thru_hole oval (at 0 30.48) (size 1.7 1.7) (drill 1) (layers *.Cu *.Mask)
      (net 50 GND6))
    (pad 14 thru_hole oval (at 0 33.02) (size 1.7 1.7) (drill 1) (layers *.Cu *.Mask)
      (net 49 GP21))
    (pad 15 thru_hole oval (at 0 35.56) (size 1.7 1.7) (drill 1) (layers *.Cu *.Mask)
      (net 48 GP20))
    (pad 16 thru_hole oval (at 0 38.1) (size 1.7 1.7) (drill 1) (layers *.Cu *.Mask)
      (net 47 GP19))
    (pad 17 thru_hole oval (at 0 40.64) (size 1.7 1.7) (drill 1) (layers *.Cu *.Mask)
      (net 46 GP18))
    (pad 18 thru_hole oval (at 0 43.18) (size 1.7 1.7) (drill 1) (layers *.Cu *.Mask)
      (net 45 GND7))
    (pad 19 thru_hole oval (at 0 45.72) (size 1.7 1.7) (drill 1) (layers *.Cu *.Mask)
      (net 43 GP17))
    (pad 20 thru_hole oval (at 0 48.26) (size 1.7 1.7) (drill 1) (layers *.Cu *.Mask)
      (net 42 GP16))
    (model ${KISYS3DMOD}/Connector_PinSocket_2.54mm.3dshapes/PinSocket_1x20_P2.54mm_Vertical.wrl
      (at (xyz 0 0 0))
      (scale (xyz 1 1 1))
      (rotate (xyz 0 0 0))
    )
  )

  (segment (start 120.65 81.28) (end 125.73 81.28) (width 0.25) (layer B.Cu) (net 4))
  (segment (start 125.73 81.28) (end 130.81 76.2) (width 0.25) (layer B.Cu) (net 4))
  (segment (start 193.04 76.2) (end 210.82 93.98) (width 0.25) (layer B.Cu) (net 4))
  (segment (start 130.81 76.2) (end 193.04 76.2) (width 0.25) (layer B.Cu) (net 4))
  (segment (start 209.455001 110.395001) (end 210.82 111.76) (width 0.25) (layer B.Cu) (net 11))
  (segment (start 97.695001 110.395001) (end 209.455001 110.395001) (width 0.25) (layer B.Cu) (net 11))
  (segment (start 96.52 109.22) (end 97.695001 110.395001) (width 0.25) (layer B.Cu) (net 11))
  (segment (start 209.455001 112.935001) (end 210.82 114.3) (width 0.25) (layer B.Cu) (net 12))
  (segment (start 97.695001 112.935001) (end 209.455001 112.935001) (width 0.25) (layer B.Cu) (net 12))
  (segment (start 96.52 111.76) (end 97.695001 112.935001) (width 0.25) (layer B.Cu) (net 12))
  (segment (start 209.644999 118.015001) (end 210.82 116.84) (width 0.25) (layer B.Cu) (net 13))
  (segment (start 100.235001 118.015001) (end 209.644999 118.015001) (width 0.25) (layer B.Cu) (net 13))
  (segment (start 96.52 114.3) (end 100.235001 118.015001) (width 0.25) (layer B.Cu) (net 13))
  (segment (start 120.65 78.74) (end 125.73 78.74) (width 0.25) (layer B.Cu) (net 19))
  (segment (start 125.73 78.74) (end 130.81 73.66) (width 0.25) (layer B.Cu) (net 19))
  (segment (start 202.730998 73.66) (end 229.87 100.799002) (width 0.25) (layer B.Cu) (net 19))
  (segment (start 130.81 73.66) (end 202.730998 73.66) (width 0.25) (layer B.Cu) (net 19))
  (segment (start 96.52 116.84) (end 101.6 121.92) (width 0.25) (layer F.Cu) (net 20))
  (segment (start 101.6 121.92) (end 101.6 130.81) (width 0.25) (layer F.Cu) (net 20))
  (segment (start 101.6 130.81) (end 234.95 130.81) (width 0.25) (layer F.Cu) (net 20))
  (segment (start 234.95 130.81) (end 234.95 104.14) (width 0.25) (layer F.Cu) (net 20))
  (segment (start 234.95 104.14) (end 229.87 104.14) (width 0.25) (layer F.Cu) (net 20))
  (segment (start 105.41 133.35) (end 96.52 124.46) (width 0.25) (layer B.Cu) (net 21))
  (segment (start 231.14 133.35) (end 105.41 133.35) (width 0.25) (layer B.Cu) (net 21))
  (segment (start 237.49 127) (end 231.14 133.35) (width 0.25) (layer B.Cu) (net 21))
  (segment (start 237.49 111.76) (end 237.49 127) (width 0.25) (layer B.Cu) (net 21))
  (segment (start 232.41 106.68) (end 237.49 111.76) (width 0.25) (layer B.Cu) (net 21))
  (segment (start 229.87 106.68) (end 232.41 106.68) (width 0.25) (layer B.Cu) (net 21))
  (segment (start 229.87 109.22) (end 228.6 109.22) (width 0.25) (layer B.Cu) (net 22))
  (segment (start 228.6 109.22) (end 224.79 113.03) (width 0.25) (layer B.Cu) (net 22))
  (segment (start 224.79 113.03) (end 224.79 120.65) (width 0.25) (layer B.Cu) (net 22))
  (segment (start 224.79 120.65) (end 217.17 128.27) (width 0.25) (layer B.Cu) (net 22))
  (segment (start 102.87 128.27) (end 96.52 121.92) (width 0.25) (layer B.Cu) (net 22))
  (segment (start 217.17 128.27) (end 102.87 128.27) (width 0.25) (layer B.Cu) (net 22))
  (segment (start 87.63 76.2) (end 77.47 86.36) (width 0.25) (layer F.Cu) (net 29))
  (segment (start 96.52 76.2) (end 87.63 76.2) (width 0.25) (layer F.Cu) (net 29))
  (segment (start 96.52 78.74) (end 97.79 78.74) (width 0.25) (layer F.Cu) (net 30))
  (segment (start 87.63 78.74) (end 77.47 88.9) (width 0.25) (layer F.Cu) (net 30))
  (segment (start 96.52 78.74) (end 87.63 78.74) (width 0.25) (layer F.Cu) (net 30))
  (segment (start 87.63 81.28) (end 77.47 91.44) (width 0.25) (layer F.Cu) (net 31))
  (segment (start 96.52 81.28) (end 87.63 81.28) (width 0.25) (layer F.Cu) (net 31))
  (segment (start 96.52 83.82) (end 87.63 83.82) (width 0.25) (layer F.Cu) (net 32))
  (segment (start 87.63 83.82) (end 77.47 93.98) (width 0.25) (layer F.Cu) (net 32))
  (segment (start 87.63 86.36) (end 77.47 96.52) (width 0.25) (layer F.Cu) (net 33))
  (segment (start 96.52 86.36) (end 87.63 86.36) (width 0.25) (layer F.Cu) (net 33))
  (segment (start 87.63 88.9) (end 77.47 99.06) (width 0.25) (layer F.Cu) (net 34))
  (segment (start 96.52 88.9) (end 87.63 88.9) (width 0.25) (layer F.Cu) (net 34))
  (segment (start 87.63 91.44) (end 77.47 101.6) (width 0.25) (layer F.Cu) (net 35))
  (segment (start 96.52 91.44) (end 87.63 91.44) (width 0.25) (layer F.Cu) (net 35))
  (segment (start 87.63 93.98) (end 77.47 104.14) (width 0.25) (layer F.Cu) (net 36))
  (segment (start 96.52 93.98) (end 87.63 93.98) (width 0.25) (layer F.Cu) (net 36))
  (segment (start 87.63 96.52) (end 77.47 106.68) (width 0.25) (layer F.Cu) (net 37))
  (segment (start 96.52 96.52) (end 87.63 96.52) (width 0.25) (layer F.Cu) (net 37))
  (segment (start 87.63 99.06) (end 77.47 109.22) (width 0.25) (layer F.Cu) (net 38))
  (segment (start 96.52 99.06) (end 87.63 99.06) (width 0.25) (layer F.Cu) (net 38))
  (segment (start 87.63 101.6) (end 77.47 111.76) (width 0.25) (layer F.Cu) (net 39))
  (segment (start 96.52 101.6) (end 87.63 101.6) (width 0.25) (layer F.Cu) (net 39))
  (segment (start 87.63 104.14) (end 77.47 114.3) (width 0.25) (layer F.Cu) (net 40))
  (segment (start 96.52 104.14) (end 87.63 104.14) (width 0.25) (layer F.Cu) (net 40))
  (segment (start 87.63 106.68) (end 77.47 116.84) (width 0.25) (layer F.Cu) (net 41))
  (segment (start 96.52 106.68) (end 87.63 106.68) (width 0.25) (layer F.Cu) (net 41))
  (segment (start 138.43 119.38) (end 120.65 119.38) (width 0.25) (layer F.Cu) (net 45))
  (segment (start 121.450998 119.38) (end 120.65 119.38) (width 0.25) (layer F.Cu) (net 45))
  (segment (start 152.4 119.38) (end 121.450998 119.38) (width 0.25) (layer F.Cu) (net 45))
  (segment (start 152.4 116.84) (end 120.65 116.84) (width 0.25) (layer F.Cu) (net 46))
  (segment (start 152.4 114.3) (end 120.65 114.3) (width 0.25) (layer F.Cu) (net 47))
  (segment (start 152.4 111.76) (end 120.65 111.76) (width 0.25) (layer F.Cu) (net 48))
  (segment (start 152.4 109.22) (end 120.65 109.22) (width 0.25) (layer F.Cu) (net 49))
  (segment (start 152.4 106.68) (end 120.65 106.68) (width 0.25) (layer F.Cu) (net 50))
  (segment (start 152.4 104.14) (end 120.65 104.14) (width 0.25) (layer F.Cu) (net 51))
  (segment (start 120.65 88.9) (end 152.4 88.9) (width 0.25) (layer F.Cu) (net 57))
  (segment (start 120.65 86.36) (end 152.4 86.36) (width 0.25) (layer F.Cu) (net 58))
  (segment (start 120.65 83.82) (end 152.4 83.82) (width 0.25) (layer F.Cu) (net 59))
  (segment (start 152.4 81.28) (end 147.32 76.2) (width 0.25) (layer F.Cu) (net 60))
  (segment (start 147.32 76.2) (end 120.65 76.2) (width 0.25) (layer F.Cu) (net 60))

)
