( { EESchema Netlist Version 1.1 created  11/29/21 16:29:00 }
 ( /6180FEB4 Connector_PinSocket_2.54mm:PinSocket_1x20_P2.54mm_Vertical  RPI_RIGHT1 Conn_01x20
  (    1 VBUS )
  (    2 VSYS )
  (    3 GND )
  (    4 3V3_EN )
  (    5 3V3_OUT )
  (    6 ADC_VREF )
  (    7 GP28 )
  (    8 GND )
  (    9 GP27 )
  (   10 GP26 )
  (   11 RUN )
  (   12 GP22 )
  (   13 GND )
  (   14 GP21 )
  (   15 GP20 )
  (   16 GP19 )
  (   17 GP18 )
  (   18 GND )
  (   19 GP17 )
  (   20 GP16 )
 )
 ( /61811928 Connector_PinSocket_2.54mm:PinSocket_1x12_P2.54mm_Vertical  AIRLIFT_RIGHT1 Conn_01x12
  (    1 ? )
  (    2 ? )
  (    3 VSYS )
  (    4 GP13 )
  (    5 GP15 )
  (    6 GP14 )
  (    7 ? )
  (    8 ? )
  (    9 ? )
  (   10 ? )
  (   11 ? )
  (   12 ? )
 )
 ( /61822077 Connector_PinSocket_2.54mm:PinSocket_1x16_P2.54mm_Vertical  AIRLIFT_LEFT1 Conn_01x16
  (    1 ? )
  (    2 ? )
  (    3 ? )
  (    4 GND )
  (    5 ? )
  (    6 ? )
  (    7 ? )
  (    8 ? )
  (    9 ? )
  (   10 ? )
  (   11 GP10 )
  (   12 GP11 )
  (   13 GP12 )
  (   14 ? )
  (   15 ? )
  (   16 ? )
 )
 ( /61827E07 Connector_PinSocket_2.54mm:PinSocket_1x20_P2.54mm_Vertical  RPI_LEFT1 Conn_01x20
  (    1 GP0 )
  (    2 GP1 )
  (    3 GND )
  (    4 GP2 )
  (    5 GP3 )
  (    6 GP4 )
  (    7 GP5 )
  (    8 GND )
  (    9 GP6 )
  (   10 GP7 )
  (   11 GP8 )
  (   12 GP9 )
  (   13 GND )
  (   14 GP10 )
  (   15 GP11 )
  (   16 GP12 )
  (   17 GP13 )
  (   18 GND )
  (   19 GP14 )
  (   20 GP15 )
 )
 ( /6180F8D6 Connector_PinHeader_2.54mm:PinHeader_1x16_P2.54mm_Vertical  PIN_LEFT1 Conn_01x16
  (    1 GP0 )
  (    2 GP1 )
  (    3 GND )
  (    4 GP2 )
  (    5 GP3 )
  (    6 GP4 )
  (    7 GP5 )
  (    8 GND )
  (    9 GP6 )
  (   10 GP7 )
  (   11 GP8 )
  (   12 GP9 )
  (   13 GND )
  (   14 GND )
  (   15 GP17 )
  (   16 GP16 )
 )
 ( /618129A5 Connector_PinHeader_2.54mm:PinHeader_1x16_P2.54mm_Vertical  PIN_RIGHT1 Conn_01x16
  (    1 VBUS )
  (    2 3V3_EN )
  (    3 3V3_OUT )
  (    4 ADC_VREF )
  (    5 GP28 )
  (    6 GND )
  (    7 GP27 )
  (    8 GP26 )
  (    9 RUN )
  (   10 GP22 )
  (   11 GND )
  (   12 GP21 )
  (   13 GP20 )
  (   14 GP19 )
  (   15 GP18 )
  (   16 GND )
 )
)
*
