EESchema Schematic File Version 4
EELAYER 30 0
EELAYER END
$Descr A4 11693 8268
encoding utf-8
Sheet 1 1
Title ""
Date ""
Rev ""
Comp ""
Comment1 ""
Comment2 ""
Comment3 ""
Comment4 ""
$EndDescr
$Comp
L Connector_Generic:Conn_01x20 RPI_RIGHT1
U 1 1 6180FEB4
P 4700 3500
F 0 "RPI_RIGHT1" H 4618 4617 50  0000 C CNN
F 1 "Conn_01x20" H 4618 4526 50  0000 C CNN
F 2 "Connector_PinSocket_2.54mm:PinSocket_1x20_P2.54mm_Vertical" H 4700 3500 50  0001 C CNN
F 3 "~" H 4700 3500 50  0001 C CNN
	1    4700 3500
	-1   0    0    -1  
$EndComp
$Comp
L Connector_Generic:Conn_01x12 AIRLIFT_RIGHT1
U 1 1 61811928
P 8100 3500
F 0 "AIRLIFT_RIGHT1" H 8018 4217 50  0000 C CNN
F 1 "Conn_01x12" H 8018 4126 50  0000 C CNN
F 2 "Connector_PinSocket_2.54mm:PinSocket_1x12_P2.54mm_Vertical" H 8100 3500 50  0001 C CNN
F 3 "~" H 8100 3500 50  0001 C CNN
	1    8100 3500
	-1   0    0    -1  
$EndComp
Text Notes 4300 2700 0    50   ~ 0
USB
Text GLabel 4900 2700 2    50   Input ~ 0
VSYS
Text GLabel 4900 2800 2    50   Input ~ 0
GND
Text GLabel 8300 3200 2    50   Input ~ 0
VSYS
Text GLabel 7100 3300 0    50   Input ~ 0
GND
$Comp
L Connector_Generic:Conn_01x16 AIRLIFT_LEFT1
U 1 1 61822077
P 7300 3700
F 0 "AIRLIFT_LEFT1" H 7000 4600 50  0000 L CNN
F 1 "Conn_01x16" H 7000 4500 50  0000 L CNN
F 2 "Connector_PinSocket_2.54mm:PinSocket_1x16_P2.54mm_Vertical" H 7300 3700 50  0001 C CNN
F 3 "~" H 7300 3700 50  0001 C CNN
	1    7300 3700
	1    0    0    -1  
$EndComp
Text GLabel 4900 2600 2    50   Input ~ 0
VBUS
Text GLabel 4900 2900 2    50   Input ~ 0
3V3_EN
Text GLabel 4900 3000 2    50   Input ~ 0
3V3_OUT
Text GLabel 4900 3100 2    50   Input ~ 0
ADC_VREF
Text GLabel 4900 3200 2    50   Input ~ 0
GP28
Text GLabel 4900 3300 2    50   Input ~ 0
GND
Text GLabel 4900 3400 2    50   Input ~ 0
GP27
Text GLabel 4900 3500 2    50   Input ~ 0
GP26
Text GLabel 4900 3600 2    50   Input ~ 0
RUN
Text GLabel 4900 3700 2    50   Input ~ 0
GP22
Text GLabel 4900 3800 2    50   Input ~ 0
GND
Text GLabel 4900 3900 2    50   Input ~ 0
GP21
Text GLabel 4900 4000 2    50   Input ~ 0
GP20
Text GLabel 4900 4100 2    50   Input ~ 0
GP19
Text GLabel 4900 4200 2    50   Input ~ 0
GP18
Text GLabel 4900 4300 2    50   Input ~ 0
GND
Text GLabel 4900 4400 2    50   Input ~ 0
GP17
Text GLabel 4900 4500 2    50   Input ~ 0
GP16
$Comp
L Connector_Generic:Conn_01x20 RPI_LEFT1
U 1 1 61827E07
P 4100 3500
F 0 "RPI_LEFT1" H 3800 4600 50  0000 L CNN
F 1 "Conn_01x20" H 3800 4500 50  0000 L CNN
F 2 "Connector_PinSocket_2.54mm:PinSocket_1x20_P2.54mm_Vertical" H 4100 3500 50  0001 C CNN
F 3 "~" H 4100 3500 50  0001 C CNN
	1    4100 3500
	1    0    0    -1  
$EndComp
Text GLabel 3900 2600 0    50   Input ~ 0
GP0
Text GLabel 3900 2700 0    50   Input ~ 0
GP1
Text GLabel 3900 2800 0    50   Input ~ 0
GND
Text GLabel 3900 2900 0    50   Input ~ 0
GP2
Text GLabel 3900 3000 0    50   Input ~ 0
GP3
Text GLabel 3900 3100 0    50   Input ~ 0
GP4
Text GLabel 3900 3200 0    50   Input ~ 0
GP5
Text GLabel 3900 3300 0    50   Input ~ 0
GND
Text GLabel 3900 3400 0    50   Input ~ 0
GP6
Text GLabel 3900 3500 0    50   Input ~ 0
GP7
Text GLabel 3900 3600 0    50   Input ~ 0
GP8
Text GLabel 3900 3700 0    50   Input ~ 0
GP9
Text GLabel 3900 3800 0    50   Input ~ 0
GND
Text GLabel 3900 3900 0    50   Input ~ 0
GP10
Text GLabel 3900 4000 0    50   Input ~ 0
GP11
Text GLabel 3900 4100 0    50   Input ~ 0
GP12
Text GLabel 3900 4200 0    50   Input ~ 0
GP13
Text GLabel 3900 4300 0    50   Input ~ 0
GND
Text GLabel 3900 4400 0    50   Input ~ 0
GP14
Text GLabel 3900 4500 0    50   Input ~ 0
GP15
Text GLabel 7100 4200 0    50   Input ~ 0
GP12
Text GLabel 7100 4100 0    50   Input ~ 0
GP11
Text GLabel 7100 4000 0    50   Input ~ 0
GP10
Text GLabel 8300 3300 2    50   Input ~ 0
GP13
Text GLabel 8300 3400 2    50   Input ~ 0
GP15
Text GLabel 8300 3500 2    50   Input ~ 0
GP14
$Comp
L Connector_Generic:Conn_01x16 PIN_LEFT1
U 1 1 6180F8D6
P 2700 3800
F 0 "PIN_LEFT1" H 2700 4700 50  0000 L CNN
F 1 "Conn_01x16" H 2700 4600 50  0000 L CNN
F 2 "Connector_PinHeader_2.54mm:PinHeader_1x16_P2.54mm_Vertical" H 2700 3800 50  0001 C CNN
F 3 "~" H 2700 3800 50  0001 C CNN
	1    2700 3800
	1    0    0    -1  
$EndComp
$Comp
L Connector_Generic:Conn_01x16 PIN_RIGHT1
U 1 1 618129A5
P 5800 3800
F 0 "PIN_RIGHT1" H 5718 4717 50  0000 C CNN
F 1 "Conn_01x16" H 5718 4626 50  0000 C CNN
F 2 "Connector_PinHeader_2.54mm:PinHeader_1x16_P2.54mm_Vertical" H 5800 3800 50  0001 C CNN
F 3 "~" H 5800 3800 50  0001 C CNN
	1    5800 3800
	-1   0    0    -1  
$EndComp
Text GLabel 2500 3100 0    50   Input ~ 0
GP0
Text GLabel 2500 3200 0    50   Input ~ 0
GP1
Text GLabel 2500 3300 0    50   Input ~ 0
GND
Text GLabel 2500 3400 0    50   Input ~ 0
GP2
Text GLabel 2500 3500 0    50   Input ~ 0
GP3
Text GLabel 2500 3600 0    50   Input ~ 0
GP4
Text GLabel 2500 3700 0    50   Input ~ 0
GP5
Text GLabel 2500 3800 0    50   Input ~ 0
GND
Text GLabel 2500 3900 0    50   Input ~ 0
GP6
Text GLabel 2500 4000 0    50   Input ~ 0
GP7
Text GLabel 2500 4100 0    50   Input ~ 0
GP8
Text GLabel 2500 4200 0    50   Input ~ 0
GP9
Text GLabel 2500 4300 0    50   Input ~ 0
GND
Text GLabel 6000 3100 2    50   Input ~ 0
VBUS
Text GLabel 6000 3200 2    50   Input ~ 0
3V3_EN
Text GLabel 6000 3300 2    50   Input ~ 0
3V3_OUT
Text GLabel 6000 3400 2    50   Input ~ 0
ADC_VREF
Text GLabel 2500 4400 0    50   Input ~ 0
GND
Text GLabel 2500 4500 0    50   Input ~ 0
GP17
Text GLabel 6000 4600 2    50   Input ~ 0
GND
Text GLabel 6000 4500 2    50   Input ~ 0
GP18
Text GLabel 6000 4400 2    50   Input ~ 0
GP19
Text GLabel 6000 4300 2    50   Input ~ 0
GP20
Text GLabel 6000 4200 2    50   Input ~ 0
GP21
Text GLabel 6000 4100 2    50   Input ~ 0
GND
Text GLabel 6000 4000 2    50   Input ~ 0
GP22
Text GLabel 6000 3500 2    50   Input ~ 0
GP28
Text GLabel 6000 3600 2    50   Input ~ 0
GND
Text GLabel 6000 3900 2    50   Input ~ 0
RUN
Text GLabel 6000 3800 2    50   Input ~ 0
GP26
Text GLabel 6000 3700 2    50   Input ~ 0
GP27
Text GLabel 2500 4600 0    50   Input ~ 0
GP16
Wire Notes Line
	5400 2200 5400 4700
Wire Notes Line
	5400 4700 3300 4700
Wire Notes Line
	3300 2200 5400 2200
Wire Notes Line
	3300 2200 3300 4700
Wire Notes Line
	6600 2600 8600 2600
Wire Notes Line
	8600 2600 8600 4700
Wire Notes Line
	8600 4700 6600 4700
Wire Notes Line
	6600 4700 6600 2600
Wire Notes Line
	6500 2700 6500 4700
Wire Notes Line
	6500 4700 5500 4700
Wire Notes Line
	5500 4700 5500 2700
Wire Notes Line
	5500 2700 6500 2700
Wire Notes Line
	3200 2700 3200 4700
Wire Notes Line
	3200 4700 2200 4700
Wire Notes Line
	2200 4700 2200 2700
Wire Notes Line
	2200 2700 3200 2700
Text Notes 3300 2300 0    50   ~ 0
PICO_BLOCK
Text Notes 7200 2700 2    50   ~ 0
AIRLIFT_BLOCK
Text Notes 2900 2800 2    50   ~ 0
LEFT_PIN_BLOCK
Text Notes 6200 2800 2    50   ~ 0
RIGHT_PIN_BLOCK
Text Notes 7500 4400 0    50   ~ 0
PROSSESOR
$EndSCHEMATC
