(module LOGO (layer F.Cu)
  (at 0 0)
 (fp_text reference "G***" (at 0 0) (layer F.SilkS) hide
  (effects (font (thickness 0.3)))
  )
  (fp_text value "LOGO" (at 0.75 0) (layer F.SilkS) hide
  (effects (font (thickness 0.3)))
  )
  (fp_poly (pts (xy 1.928968 -13.944398) (xy 2.160855 -13.928411) (xy 2.467939 -13.903415) (xy 2.839952 -13.871226) (xy 3.103312 -13.848216) (xy 3.456073 -13.817508) (xy 3.886413 -13.780125) (xy 4.382509 -13.737091)
     (xy 4.932537 -13.689431) (xy 5.524675 -13.638168) (xy 6.147100 -13.584328) (xy 6.787989 -13.528933) (xy 7.435518 -13.473009) (xy 7.823200 -13.439549) (xy 8.530470 -13.378393) (xy 9.143837 -13.324955)
     (xy 9.670637 -13.278416) (xy 10.118207 -13.237955) (xy 10.493882 -13.202751) (xy 10.805001 -13.171985) (xy 11.058898 -13.144835) (xy 11.262913 -13.120481) (xy 11.424379 -13.098103) (xy 11.550636 -13.076880)
     (xy 11.649018 -13.055992) (xy 11.726864 -13.034619) (xy 11.791509 -13.011939) (xy 11.844087 -12.989901) (xy 12.156250 -12.808434) (xy 12.400474 -12.577331) (xy 12.566619 -12.309957) (xy 12.644541 -12.019681)
     (xy 12.649200 -11.928756) (xy 12.635239 -11.838662) (xy 12.596705 -11.671181) (xy 12.538620 -11.446122) (xy 12.466004 -11.183293) (xy 12.418884 -11.020250) (xy 12.156525 -10.104206) (xy 11.932164 -9.271951)
     (xy 11.746187 -8.525173) (xy 11.598979 -7.865560) (xy 11.490925 -7.294800) (xy 11.422410 -6.814581) (xy 11.399347 -6.553200) (xy 11.375649 -6.247731) (xy 11.343320 -6.022821) (xy 11.296250 -5.857463)
     (xy 11.228332 -5.730647) (xy 11.133455 -5.621365) (xy 11.126400 -5.614551) (xy 11.026432 -5.536971) (xy 10.905622 -5.484086) (xy 10.750532 -5.455430) (xy 10.547726 -5.450537) (xy 10.283765 -5.468940)
     (xy 9.945211 -5.510172) (xy 9.597555 -5.561456) (xy 9.302183 -5.608238) (xy 8.960781 -5.664064) (xy 8.588855 -5.726229) (xy 8.201907 -5.792027) (xy 7.815440 -5.858751) (xy 7.444959 -5.923697)
     (xy 7.105967 -5.984158) (xy 6.813967 -6.037428) (xy 6.584464 -6.080802) (xy 6.432960 -6.111574) (xy 6.395300 -6.120347) (xy 6.306457 -6.122203) (xy 6.228219 -6.072843) (xy 6.156542 -5.963070)
     (xy 6.087379 -5.783690) (xy 6.016683 -5.525506) (xy 5.940407 -5.179322) (xy 5.906533 -5.009563) (xy 5.775981 -4.444753) (xy 5.618715 -3.966480) (xy 5.427650 -3.561596) (xy 5.195699 -3.216953)
     (xy 4.915777 -2.919400) (xy 4.673649 -2.721846) (xy 4.409337 -2.561352) (xy 4.054538 -2.398907) (xy 3.620250 -2.237355) (xy 3.117475 -2.079541) (xy 2.557209 -1.928310) (xy 1.950455 -1.786506)
     (xy 1.308209 -1.656974) (xy 0.641473 -1.542559) (xy -0.038755 -1.446106) (xy -0.442306 -1.398738) (xy -0.708437 -1.370640) (xy -0.943245 -1.347045) (xy -1.125831 -1.329964) (xy -1.235296 -1.321409)
     (xy -1.251910 -1.320801) (xy -1.297435 -1.308624) (xy -1.277168 -1.260632) (xy -1.206177 -1.181100) (xy -1.112590 -1.059013) (xy -1.006550 -0.885283) (xy -0.929973 -0.736600) (xy -0.875682 -0.616150)
     (xy -0.837411 -0.510923) (xy -0.812509 -0.399867) (xy -0.798327 -0.261929) (xy -0.792215 -0.076059) (xy -0.791523 0.178797) (xy -0.792490 0.355600) (xy -0.796906 0.683798) (xy -0.807343 0.938672)
     (xy -0.826839 1.148450) (xy -0.858434 1.341366) (xy -0.905167 1.545648) (xy -0.931566 1.647373) (xy -1.088100 2.131844) (xy -1.294725 2.613339) (xy -1.535269 3.058031) (xy -1.771098 3.403600)
     (xy -1.980408 3.642573) (xy -2.256678 3.914067) (xy -2.578454 4.200547) (xy -2.924281 4.484476) (xy -3.272705 4.748320) (xy -3.602274 4.974542) (xy -3.891533 5.145607) (xy -3.920948 5.160801)
     (xy -4.158895 5.281513) (xy -2.790391 7.573371) (xy -2.525251 8.016640) (xy -2.273208 8.436545) (xy -2.039535 8.824403) (xy -1.829504 9.171528) (xy -1.648389 9.469237) (xy -1.501462 9.708847)
     (xy -1.393997 9.881672) (xy -1.331266 9.979029) (xy -1.320543 9.994065) (xy -1.234243 10.180030) (xy -1.227943 10.394603) (xy -1.296211 10.611402) (xy -1.433615 10.804047) (xy -1.499420 10.862768)
     (xy -1.567181 10.931825) (xy -1.685414 11.068977) (xy -1.843466 11.261164) (xy -2.030680 11.495325) (xy -2.236403 11.758401) (xy -2.342304 11.895953) (xy -3.055339 12.827000) (xy -2.861170 12.914567)
     (xy -2.722049 12.970273) (xy -2.614421 13.001286) (xy -2.595342 13.003467) (xy -2.524620 13.028317) (xy -2.387363 13.094714) (xy -2.204279 13.192135) (xy -2.023842 13.293930) (xy -1.776020 13.444992)
     (xy -1.613952 13.565414) (xy -1.530124 13.664854) (xy -1.517026 13.752973) (xy -1.567145 13.839428) (xy -1.584960 13.858239) (xy -1.639503 13.900744) (xy -1.702675 13.910681) (xy -1.794462 13.882350)
     (xy -1.934848 13.810051) (xy -2.109007 13.708766) (xy -2.344056 13.580678) (xy -2.610951 13.451970) (xy -2.837254 13.356375) (xy -3.147238 13.217070) (xy -3.356620 13.072604) (xy -3.466314 12.921947)
     (xy -3.477233 12.764070) (xy -3.442226 12.675167) (xy -3.386026 12.590148) (xy -3.277203 12.440305) (xy -3.126902 12.239908) (xy -2.946267 12.003229) (xy -2.746445 11.744539) (xy -2.538582 11.478109)
     (xy -2.333821 11.218210) (xy -2.143310 10.979112) (xy -1.978193 10.775087) (xy -1.849615 10.620406) (xy -1.768724 10.529340) (xy -1.758634 10.519444) (xy -1.665512 10.403801) (xy -1.625218 10.292363)
     (xy -1.646394 10.214389) (xy -1.664984 10.202333) (xy -1.697750 10.156748) (xy -1.777592 10.031866) (xy -1.899622 9.835700) (xy -2.058952 9.576257) (xy -2.250694 9.261549) (xy -2.469961 8.899586)
     (xy -2.711865 8.498377) (xy -2.971517 8.065933) (xy -3.120542 7.816972) (xy -4.536717 5.448545) (xy -4.849700 5.473668) (xy -5.043443 5.480206) (xy -5.204151 5.457505) (xy -5.360381 5.395020)
     (xy -5.540688 5.282206) (xy -5.713633 5.154609) (xy -5.848871 5.054029) (xy -5.931376 5.008508) (xy -5.988913 5.011114) (xy -6.049245 5.054915) (xy -6.063298 5.067307) (xy -6.211806 5.200683)
     (xy -6.412347 5.383424) (xy -6.652936 5.604371) (xy -6.921587 5.852365) (xy -7.206314 6.116248) (xy -7.495130 6.384860) (xy -7.776050 6.647044) (xy -8.037088 6.891640) (xy -8.266258 7.107491)
     (xy -8.451575 7.283436) (xy -8.581051 7.408318) (xy -8.626040 7.453162) (xy -8.871949 7.671485) (xy -9.113861 7.822818) (xy -9.336361 7.899301) (xy -9.500734 7.899151) (xy -9.661555 7.819248)
     (xy -9.814005 7.666200) (xy -9.932234 7.466948) (xy -9.944837 7.436249) (xy -9.976944 7.351926) (xy -10.039635 7.186000) (xy -10.127817 6.951999) (xy -10.236397 6.663449) (xy -10.360281 6.333877)
     (xy -10.494378 5.976811) (xy -10.521145 5.905500) (xy -11.040700 4.521200) (xy -11.204362 4.521200) (xy -11.347921 4.556864) (xy -11.531225 4.651792) (xy -11.731677 4.787886) (xy -11.926678 4.947048)
     (xy -12.093631 5.111182) (xy -12.209939 5.262189) (xy -12.250995 5.359400) (xy -12.309030 5.442093) (xy -12.417672 5.477810) (xy -12.534163 5.459652) (xy -12.594542 5.414849) (xy -12.638828 5.285924)
     (xy -12.595830 5.119073) (xy -12.468869 4.922348) (xy -12.327339 4.766735) (xy -12.019239 4.487500) (xy -11.741025 4.292497) (xy -11.479411 4.173987) (xy -11.225020 4.124507) (xy -11.051011 4.116631)
     (xy -10.939914 4.131780) (xy -10.853778 4.180787) (xy -10.776439 4.252545) (xy -10.664562 4.395449) (xy -10.583780 4.552485) (xy -10.576041 4.576003) (xy -10.536454 4.696811) (xy -10.468760 4.887392)
     (xy -10.378504 5.133353) (xy -10.271235 5.420300) (xy -10.152499 5.733841) (xy -10.027844 6.059582) (xy -9.902817 6.383131) (xy -9.782966 6.690093) (xy -9.673837 6.966077) (xy -9.580978 7.196689)
     (xy -9.509937 7.367535) (xy -9.466260 7.464223) (xy -9.456857 7.479863) (xy -9.420977 7.498582) (xy -9.368043 7.491192) (xy -9.290680 7.451807) (xy -9.181515 7.374541) (xy -9.033173 7.253508)
     (xy -8.838278 7.082821) (xy -8.589458 6.856594) (xy -8.279337 6.568941) (xy -8.068810 6.371954) (xy -7.773542 6.095270) (xy -7.479332 5.819917) (xy -7.201201 5.559928) (xy -6.954166 5.329332)
     (xy -6.753246 5.142160) (xy -6.628621 5.026467) (xy -6.221441 4.649625) (xy -6.407654 4.278956) (xy -6.536975 4.001999) (xy -6.633850 3.741244) (xy -6.702436 3.474454) (xy -6.746890 3.179387)
     (xy -6.771370 2.833804) (xy -6.780033 2.415465) (xy -6.780155 2.319379) (xy -6.399918 2.319379) (xy -6.365831 2.951382) (xy -6.265008 3.508076) (xy -6.096658 3.991444) (xy -5.859990 4.403469)
     (xy -5.554213 4.746131) (xy -5.372459 4.894048) (xy -5.216323 5.001514) (xy -5.099709 5.056897) (xy -4.984122 5.073193) (xy -4.861978 5.066401) (xy -4.672861 5.025775) (xy -4.431773 4.939854)
     (xy -4.201578 4.835391) (xy -3.774552 4.590767) (xy -3.319976 4.273479) (xy -2.859402 3.899812) (xy -2.414382 3.486049) (xy -2.409995 3.481675) (xy -2.200035 3.266454) (xy -2.043996 3.087865)
     (xy -1.919629 2.915311) (xy -1.804682 2.718190) (xy -1.688300 2.489200) (xy -1.499248 2.072899) (xy -1.362482 1.690671) (xy -1.269599 1.308483) (xy -1.212197 0.892302) (xy -1.183238 0.443619)
     (xy -1.155321 -0.255762) (xy -1.318964 -0.588170) (xy -1.506923 -0.888509) (xy -1.736188 -1.100987) (xy -2.017786 -1.234726) (xy -2.138673 -1.266343) (xy -2.325554 -1.296940) (xy -2.524210 -1.314578)
     (xy -2.709286 -1.319033) (xy -2.855429 -1.310083) (xy -2.937282 -1.287506) (xy -2.946400 -1.273424) (xy -2.987211 -1.211803) (xy -3.083071 -1.189735) (xy -3.194119 -1.210512) (xy -3.254900 -1.247949)
     (xy -3.307885 -1.289180) (xy -3.368116 -1.309211) (xy -3.459406 -1.308116) (xy -3.605567 -1.285964) (xy -3.796155 -1.249566) (xy -4.018637 -1.198223) (xy -4.221330 -1.138102) (xy -4.369408 -1.079931)
     (xy -4.398992 -1.063839) (xy -4.531730 -0.997388) (xy -4.644713 -0.965651) (xy -4.654620 -0.965200) (xy -4.767690 -0.932338) (xy -4.931296 -0.844174) (xy -5.123237 -0.716341) (xy -5.321314 -0.564473)
     (xy -5.503326 -0.404203) (xy -5.615115 -0.288824) (xy -5.896444 0.103750) (xy -6.117707 0.572678) (xy -6.276763 1.110842) (xy -6.371469 1.711126) (xy -6.399918 2.319379) (xy -6.780155 2.319379)
     (xy -6.780198 2.286000) (xy -6.777558 1.934402) (xy -6.769705 1.660531) (xy -6.754581 1.440562) (xy -6.730127 1.250673) (xy -6.694286 1.067038) (xy -6.663922 0.939800) (xy -6.502399 0.421383)
     (xy -6.292160 -0.023980) (xy -6.021746 -0.417754) (xy -5.816606 -0.647700) (xy -5.667094 -0.801365) (xy -5.548731 -0.923598) (xy -5.476282 -0.999116) (xy -5.460790 -1.016000) (xy -5.509313 -1.021828)
     (xy -5.639498 -1.037744) (xy -5.832174 -1.061398) (xy -6.068166 -1.090439) (xy -6.097517 -1.094055) (xy -6.449086 -1.140279) (xy -6.722284 -1.184270) (xy -6.940062 -1.231280) (xy -7.125375 -1.286557)
     (xy -7.301174 -1.355351) (xy -7.366000 -1.384185) (xy -7.662591 -1.469471) (xy -7.988740 -1.480427) (xy -8.304850 -1.417156) (xy -8.396823 -1.381513) (xy -8.540354 -1.307501) (xy -8.684756 -1.208495)
     (xy -8.838794 -1.075264) (xy -9.011236 -0.898580) (xy -9.210846 -0.669214) (xy -9.446392 -0.377936) (xy -9.726639 -0.015517) (xy -9.854522 0.153164) (xy -10.604171 1.146229) (xy -10.407486 1.287609)
     (xy -10.291884 1.378706) (xy -10.221165 1.449856) (xy -10.210800 1.470608) (xy -10.254885 1.506983) (xy -10.371366 1.564911) (xy -10.536580 1.632845) (xy -10.565490 1.643699) (xy -10.920179 1.775170)
     (xy -11.161349 1.671792) (xy -11.301924 1.609511) (xy -11.398361 1.562995) (xy -11.422380 1.548553) (xy -11.400353 1.503723) (xy -11.325708 1.396292) (xy -11.210135 1.242320) (xy -11.065323 1.057867)
     (xy -11.064186 1.056446) (xy -10.908105 0.858954) (xy -10.709451 0.603807) (xy -10.486515 0.314705) (xy -10.257582 0.015349) (xy -10.072587 -0.228600) (xy -9.824415 -0.556201) (xy -9.626357 -0.813871)
     (xy -9.468155 -1.013396) (xy -9.339549 -1.166561) (xy -9.230280 -1.285154) (xy -9.130088 -1.380959) (xy -9.028715 -1.465762) (xy -8.930681 -1.540427) (xy -8.573189 -1.746082) (xy -8.185954 -1.862398)
     (xy -7.786438 -1.887122) (xy -7.392104 -1.817999) (xy -7.230784 -1.759833) (xy -6.889652 -1.646297) (xy -6.460952 -1.553971) (xy -5.956907 -1.484965) (xy -5.389736 -1.441388) (xy -5.384800 -1.441139)
     (xy -5.103454 -1.429253) (xy -4.895194 -1.427966) (xy -4.731858 -1.439455) (xy -4.585280 -1.465896) (xy -4.427298 -1.509465) (xy -4.402755 -1.517029) (xy -4.180252 -1.576226) (xy -3.909460 -1.634099)
     (xy -3.643219 -1.679544) (xy -3.602655 -1.685176) (xy -3.402853 -1.716490) (xy -3.248058 -1.749720) (xy -3.160838 -1.779585) (xy -3.149600 -1.791185) (xy -3.192575 -1.812283) (xy -3.298520 -1.802880)
     (xy -3.314700 -1.799423) (xy -3.556900 -1.767468) (xy -3.855485 -1.761319) (xy -4.171206 -1.778818) (xy -4.464815 -1.817805) (xy -4.694773 -1.875310) (xy -4.895057 -1.968074) (xy -5.146167 -2.117625)
     (xy -5.427118 -2.308879) (xy -5.716925 -2.526753) (xy -5.994603 -2.756163) (xy -6.239165 -2.982024) (xy -6.251377 -2.994183) (xy -6.561810 -3.344735) (xy -6.831446 -3.728159) (xy -7.046508 -4.120957)
     (xy -7.193220 -4.499635) (xy -7.236116 -4.673600) (xy -7.274601 -4.827350) (xy -7.308849 -4.921708) (xy -6.846814 -4.921708) (xy -6.843152 -4.806760) (xy -6.835306 -4.755078) (xy -6.746363 -4.441402)
     (xy -6.580891 -4.098823) (xy -6.350863 -3.748335) (xy -6.069267 -3.412008) (xy -5.862817 -3.206490) (xy -5.622734 -2.989626) (xy -5.368262 -2.776674) (xy -5.118649 -2.582889) (xy -4.893142 -2.423528)
     (xy -4.710988 -2.313846) (xy -4.646068 -2.283891) (xy -4.265247 -2.185332) (xy -3.829185 -2.160508) (xy -3.352469 -2.209347) (xy -2.985399 -2.291962) (xy -2.658417 -2.398873) (xy -2.311934 -2.541060)
     (xy -1.972130 -2.705359) (xy -1.665184 -2.878608) (xy -1.417275 -3.047643) (xy -1.321263 -3.128684) (xy -0.982744 -3.504920) (xy -0.700770 -3.939011) (xy -0.487867 -4.406586) (xy -0.356560 -4.883275)
     (xy -0.331436 -5.054600) (xy -0.330519 -5.459248) (xy -0.406008 -5.883465) (xy -0.548108 -6.300388) (xy -0.747022 -6.683154) (xy -0.992953 -7.004898) (xy -1.070844 -7.082191) (xy -1.390094 -7.352398)
     (xy -1.728006 -7.593610) (xy -2.067015 -7.796244) (xy -2.389553 -7.950715) (xy -2.678056 -8.047441) (xy -2.894591 -8.077200) (xy -3.025859 -8.070419) (xy -3.084373 -8.038083) (xy -3.098695 -7.962206)
     (xy -3.098800 -7.948606) (xy -3.113283 -7.855872) (xy -3.166593 -7.804772) (xy -3.273519 -7.793240) (xy -3.448854 -7.819212) (xy -3.664415 -7.869662) (xy -3.964721 -7.933940) (xy -4.227055 -7.967581)
     (xy -4.434886 -7.969842) (xy -4.571683 -7.939981) (xy -4.608805 -7.912100) (xy -4.635351 -7.840274) (xy -4.672902 -7.689039) (xy -4.716790 -7.479371) (xy -4.762347 -7.232245) (xy -4.769891 -7.188200)
     (xy -4.852434 -6.773689) (xy -4.944799 -6.442969) (xy -5.045068 -6.201385) (xy -5.151321 -6.054279) (xy -5.186438 -6.027933) (xy -5.320033 -6.000246) (xy -5.465060 -6.042576) (xy -5.578119 -6.139405)
     (xy -5.598673 -6.175338) (xy -5.633066 -6.242522) (xy -5.664762 -6.255661) (xy -5.710454 -6.204109) (xy -5.786838 -6.077220) (xy -5.806844 -6.042596) (xy -5.948399 -5.830712) (xy -6.133068 -5.600391)
     (xy -6.336379 -5.378482) (xy -6.533863 -5.191832) (xy -6.689330 -5.074358) (xy -6.802347 -4.996020) (xy -6.846814 -4.921708) (xy -7.308849 -4.921708) (xy -7.320406 -4.953548) (xy -7.321941 -4.956727)
     (xy -7.338783 -5.067003) (xy -7.327742 -5.250757) (xy -7.295458 -5.471282) (xy -6.873783 -5.471282) (xy -6.855704 -5.435600) (xy -6.805451 -5.470823) (xy -6.706692 -5.564571) (xy -6.577892 -5.698966)
     (xy -6.532796 -5.748247) (xy -6.321846 -6.005534) (xy -6.164011 -6.248372) (xy -6.069145 -6.459707) (xy -6.045200 -6.592249) (xy -6.013283 -6.763978) (xy -5.931387 -6.907848) (xy -5.820297 -6.988358)
     (xy -5.811909 -6.990717) (xy -5.647219 -7.005462) (xy -5.521275 -6.944916) (xy -5.409481 -6.796670) (xy -5.402344 -6.784105) (xy -5.333030 -6.665610) (xy -5.295595 -6.627671) (xy -5.273656 -6.661440)
     (xy -5.262040 -6.708336) (xy -5.228179 -6.874166) (xy -5.191973 -7.077066) (xy -5.157018 -7.292970) (xy -5.126908 -7.497811) (xy -5.105239 -7.667521) (xy -5.095606 -7.778033) (xy -5.097894 -7.807228)
     (xy -5.163016 -7.805911) (xy -5.287110 -7.751288) (xy -5.451540 -7.655629) (xy -5.637670 -7.531198) (xy -5.826865 -7.390264) (xy -6.000490 -7.245094) (xy -6.107580 -7.142579) (xy -6.246591 -6.972576)
     (xy -6.400824 -6.743486) (xy -6.548648 -6.490903) (xy -6.668438 -6.250422) (xy -6.707706 -6.154911) (xy -6.778299 -5.946325) (xy -6.832512 -5.748265) (xy -6.865841 -5.582620) (xy -6.873783 -5.471282)
     (xy -7.295458 -5.471282) (xy -7.293419 -5.485203) (xy -7.240419 -5.747552) (xy -7.173344 -6.015018) (xy -7.096798 -6.264813) (xy -7.015417 -6.474079) (xy -6.729388 -6.996926) (xy -6.381724 -7.439101)
     (xy -5.971681 -7.801265) (xy -5.498519 -8.084078) (xy -4.978400 -8.283254) (xy -4.780393 -8.351909) (xy -4.526360 -8.454723) (xy -4.249655 -8.577543) (xy -3.994443 -8.700735) (xy -3.391485 -9.005843)
     (xy -3.543425 -9.069729) (xy -3.701799 -9.166893) (xy -3.799446 -9.288884) (xy -3.821020 -9.413068) (xy -3.805797 -9.456654) (xy -3.713011 -9.536564) (xy -3.574949 -9.536795) (xy -3.427583 -9.468600)
     (xy -3.274634 -9.413127) (xy -3.111695 -9.446258) (xy -2.930418 -9.571018) (xy -2.807255 -9.693422) (xy -2.681326 -9.822795) (xy -2.597107 -9.884307) (xy -2.533871 -9.890250) (xy -2.501408 -9.874842)
     (xy -2.416019 -9.765146) (xy -2.391151 -9.596182) (xy -2.410079 -9.467753) (xy -2.493696 -9.298044) (xy -2.658868 -9.103183) (xy -2.892457 -8.894844) (xy -3.181329 -8.684702) (xy -3.512348 -8.484432)
     (xy -3.523105 -8.478528) (xy -3.666784 -8.386300) (xy -3.717289 -8.326236) (xy -3.680457 -8.307702) (xy -3.562122 -8.340068) (xy -3.463764 -8.383272) (xy -3.174938 -8.468937) (xy -2.838431 -8.475864)
     (xy -2.467434 -8.406666) (xy -2.075133 -8.263954) (xy -1.674719 -8.050339) (xy -1.625600 -8.019326) (xy -1.186862 -7.714074) (xy -0.824629 -7.412601) (xy -0.546558 -7.121908) (xy -0.374588 -6.875307)
     (xy -0.153100 -6.397334) (xy -0.005192 -5.896857) (xy 0.066181 -5.393784) (xy 0.058064 -4.908025) (xy -0.021481 -4.495800) (xy -0.221172 -3.975391) (xy -0.499828 -3.489303) (xy -0.845008 -3.053134)
     (xy -1.244272 -2.682483) (xy -1.685182 -2.392948) (xy -1.708169 -2.380843) (xy -1.931964 -2.268035) (xy -2.151554 -2.163565) (xy -2.332444 -2.083610) (xy -2.394236 -2.059118) (xy -2.562753 -1.975338)
     (xy -2.669430 -1.878645) (xy -2.682216 -1.856267) (xy -2.703970 -1.799098) (xy -2.693595 -1.762709) (xy -2.633308 -1.739791) (xy -2.505325 -1.723034) (xy -2.319981 -1.707372) (xy -1.978448 -1.696452)
     (xy -1.555498 -1.709299) (xy -1.067911 -1.743611) (xy -0.532470 -1.797086) (xy 0.034046 -1.867422) (xy 0.614854 -1.952317) (xy 1.193174 -2.049469) (xy 1.752225 -2.156576) (xy 2.275224 -2.271336)
     (xy 2.745392 -2.391447) (xy 2.819400 -2.412387) (xy 3.337750 -2.570097) (xy 3.767950 -2.722889) (xy 4.122578 -2.879108) (xy 4.414216 -3.047098) (xy 4.655442 -3.235205) (xy 4.858838 -3.451773)
     (xy 5.036981 -3.705145) (xy 5.194419 -3.987800) (xy 5.272967 -4.180110) (xy 5.356087 -4.447077) (xy 5.437968 -4.762291) (xy 5.512802 -5.099341) (xy 5.574780 -5.431817) (xy 5.618093 -5.733307)
     (xy 5.636930 -5.977400) (xy 5.637268 -6.001178) (xy 5.633760 -6.166342) (xy 5.614541 -6.256779) (xy 5.569967 -6.299179) (xy 5.524500 -6.313248) (xy 5.451003 -6.328698) (xy 5.289144 -6.361944)
     (xy 5.050157 -6.410701) (xy 4.745276 -6.472686) (xy 4.385735 -6.545618) (xy 3.982768 -6.627213) (xy 3.547609 -6.715188) (xy 3.378200 -6.749402) (xy 2.930872 -6.839817) (xy 2.508990 -6.925279)
     (xy 2.124229 -7.003407) (xy 1.788270 -7.071823) (xy 1.512788 -7.128148) (xy 1.309461 -7.170001) (xy 1.189968 -7.195002) (xy 1.170108 -7.199333) (xy 0.984650 -7.290949) (xy 0.878008 -7.411613)
     (xy 0.843257 -7.467801) (xy 0.814933 -7.529236) (xy 0.793150 -7.604529) (xy 0.778018 -7.702291) (xy 0.769649 -7.831130) (xy 0.768550 -7.955135) (xy 1.174117 -7.955135) (xy 1.176289 -7.816233)
     (xy 1.184143 -7.721267) (xy 1.197363 -7.663073) (xy 1.207277 -7.643467) (xy 1.268922 -7.614492) (xy 1.410355 -7.573382) (xy 1.611261 -7.525370) (xy 1.851324 -7.475690) (xy 1.879600 -7.470281)
     (xy 2.028736 -7.441671) (xy 2.196878 -7.408733) (xy 2.391444 -7.369935) (xy 2.619853 -7.323745) (xy 2.889522 -7.268632) (xy 3.207872 -7.203062) (xy 3.582319 -7.125504) (xy 4.020284 -7.034426)
     (xy 4.529184 -6.928297) (xy 5.116438 -6.805584) (xy 5.789465 -6.664755) (xy 6.426200 -6.531406) (xy 6.706657 -6.475075) (xy 7.062673 -6.407299) (xy 7.469465 -6.332579) (xy 7.902252 -6.255418)
     (xy 8.336250 -6.180318) (xy 8.636000 -6.129977) (xy 9.006520 -6.068652) (xy 9.349310 -6.011884) (xy 9.650075 -5.962044) (xy 9.894518 -5.921503) (xy 10.068343 -5.892628) (xy 10.157256 -5.877792)
     (xy 10.160000 -5.877329) (xy 10.285811 -5.863329) (xy 10.460834 -5.852215) (xy 10.550819 -5.848919) (xy 10.718046 -5.852422) (xy 10.818715 -5.881044) (xy 10.886813 -5.945290) (xy 10.893719 -5.954904)
     (xy 10.946696 -6.091251) (xy 10.971722 -6.292923) (xy 10.972809 -6.348604) (xy 10.989835 -6.657423) (xy 11.039503 -7.052339) (xy 11.119731 -7.523971) (xy 11.228435 -8.062933) (xy 11.363531 -8.659844)
     (xy 11.522936 -9.305320) (xy 11.704567 -9.989978) (xy 11.906339 -10.704434) (xy 12.041129 -11.159869) (xy 12.146939 -11.531514) (xy 12.212978 -11.812592) (xy 12.239657 -12.005851) (xy 12.227390 -12.114039)
     (xy 12.188570 -12.141200) (xy 12.116442 -12.122762) (xy 11.964849 -12.071212) (xy 11.748243 -11.992196) (xy 11.481075 -11.891361) (xy 11.177797 -11.774355) (xy 10.852860 -11.646823) (xy 10.520715 -11.514414)
     (xy 10.195815 -11.382773) (xy 9.892610 -11.257547) (xy 9.625552 -11.144384) (xy 9.520566 -11.098701) (xy 8.983696 -10.854822) (xy 8.529467 -10.630721) (xy 8.142825 -10.418283) (xy 7.808714 -10.209392)
     (xy 7.604731 -10.065886) (xy 7.253600 -9.840085) (xy 6.937215 -9.708079) (xy 6.652299 -9.669446) (xy 6.395572 -9.723767) (xy 6.163756 -9.870621) (xy 6.153600 -9.879629) (xy 6.016986 -9.983536)
     (xy 5.825863 -10.105458) (xy 5.618230 -10.221398) (xy 5.588000 -10.236796) (xy 5.102530 -10.506741) (xy 4.578765 -10.849015) (xy 4.013192 -11.266318) (xy 3.402298 -11.761348) (xy 2.742569 -12.336805)
     (xy 2.171737 -12.862085) (xy 1.925336 -13.090445) (xy 1.742358 -13.252175) (xy 1.615138 -13.353240) (xy 1.536015 -13.399600) (xy 1.497325 -13.397220) (xy 1.493202 -13.390054) (xy 1.481264 -13.276867)
     (xy 1.490509 -13.236166) (xy 1.492610 -13.172027) (xy 1.487656 -13.016828) (xy 1.476252 -12.780821) (xy 1.459002 -12.474258) (xy 1.436510 -12.107390) (xy 1.409380 -11.690469) (xy 1.378218 -11.233745)
     (xy 1.344511 -10.759666) (xy 1.298074 -10.112546) (xy 1.259528 -9.559527) (xy 1.228558 -9.093444) (xy 1.204847 -8.707129) (xy 1.188080 -8.393417) (xy 1.177942 -8.145141) (xy 1.174117 -7.955135)
     (xy 0.768550 -7.955135) (xy 0.768155 -7.999660) (xy 0.773647 -8.216489) (xy 0.786236 -8.490228) (xy 0.806034 -8.829489) (xy 0.833153 -9.242880) (xy 0.867704 -9.739014) (xy 0.909799 -10.326501)
     (xy 0.917072 -10.427210) (xy 0.951119 -10.905756) (xy 0.983215 -11.371088) (xy 1.012477 -11.809371) (xy 1.038024 -12.206767) (xy 1.058973 -12.549442) (xy 1.074442 -12.823561) (xy 1.083548 -13.015286)
     (xy 1.085121 -13.062335) (xy 1.101494 -13.352845) (xy 1.126998 -13.498331) (xy 2.169910 -13.498331) (xy 2.189750 -13.449664) (xy 2.264105 -13.359199) (xy 2.399528 -13.219268) (xy 2.602568 -13.022203)
     (xy 2.680635 -12.947962) (xy 3.229301 -12.446776) (xy 3.786567 -11.973315) (xy 4.338647 -11.537981) (xy 4.871757 -11.151172) (xy 5.372112 -10.823292) (xy 5.825927 -10.564740) (xy 5.867163 -10.543633)
     (xy 6.069821 -10.433129) (xy 6.252776 -10.319438) (xy 6.384805 -10.222392) (xy 6.411190 -10.198100) (xy 6.544799 -10.094150) (xy 6.686013 -10.064114) (xy 6.864699 -10.104387) (xy 6.940964 -10.134153)
     (xy 7.073890 -10.203619) (xy 7.248369 -10.313036) (xy 7.426718 -10.438767) (xy 7.427369 -10.439256) (xy 7.733877 -10.646129) (xy 8.129215 -10.874464) (xy 8.603975 -11.119811) (xy 9.148748 -11.377724)
     (xy 9.754122 -11.643754) (xy 10.410690 -11.913454) (xy 11.109040 -12.182376) (xy 11.137308 -12.192905) (xy 11.392556 -12.289562) (xy 11.610499 -12.375361) (xy 11.774977 -12.443677) (xy 11.869834 -12.487886)
     (xy 11.886608 -12.500092) (xy 11.845701 -12.537635) (xy 11.742513 -12.597202) (xy 11.696700 -12.619989) (xy 11.579800 -12.659761) (xy 11.394296 -12.698060) (xy 11.131374 -12.736218) (xy 10.782219 -12.775565)
     (xy 10.464800 -12.806080) (xy 10.146197 -12.834828) (xy 9.763076 -12.868926) (xy 9.324543 -12.907596) (xy 8.839705 -12.950059) (xy 8.317671 -12.995537) (xy 7.767547 -13.043251) (xy 7.198441 -13.092422)
     (xy 6.619461 -13.142271) (xy 6.039713 -13.192020) (xy 5.468305 -13.240891) (xy 4.914345 -13.288104) (xy 4.386939 -13.332881) (xy 3.895196 -13.374443) (xy 3.448223 -13.412012) (xy 3.055127 -13.444808)
     (xy 2.725015 -13.472054) (xy 2.466995 -13.492971) (xy 2.290174 -13.506779) (xy 2.203661 -13.512701) (xy 2.198035 -13.512870) (xy 2.169910 -13.498331) (xy 1.126998 -13.498331) (xy 1.138279 -13.562679)
     (xy 1.203832 -13.712044) (xy 1.306509 -13.821148) (xy 1.430731 -13.898109) (xy 1.486670 -13.923348) (xy 1.551127 -13.940852) (xy 1.637439 -13.950364) (xy 1.758941 -13.951631) (xy 1.928968 -13.944398) )(layer F.SilkS) (width  0.010000)
  )
  (fp_poly (pts (xy -3.720687 -5.585454) (xy -3.682442 -5.554785) (xy -3.622672 -5.437796) (xy -3.628351 -5.311252) (xy -3.612230 -5.143530) (xy -3.517946 -4.958306) (xy -3.362902 -4.772573) (xy -3.164499 -4.603327)
     (xy -2.940140 -4.467563) (xy -2.707225 -4.382274) (xy -2.668808 -4.374162) (xy -2.340222 -4.360442) (xy -1.994204 -4.428017) (xy -1.653908 -4.565039) (xy -1.342487 -4.759661) (xy -1.083093 -5.000035)
     (xy -0.898879 -5.274314) (xy -0.895376 -5.281632) (xy -0.789780 -5.447686) (xy -0.676934 -5.526826) (xy -0.567299 -5.514039) (xy -0.511762 -5.465533) (xy -0.470814 -5.338892) (xy -0.509374 -5.161726)
     (xy -0.624663 -4.943107) (xy -0.708490 -4.823376) (xy -0.909022 -4.587510) (xy -1.128014 -4.401252) (xy -1.398514 -4.238835) (xy -1.558019 -4.161007) (xy -1.988663 -4.009896) (xy -2.417164 -3.953734)
     (xy -2.674071 -3.967399) (xy -2.992044 -4.053675) (xy -3.310700 -4.222017) (xy -3.607781 -4.455516) (xy -3.861023 -4.737263) (xy -4.018326 -4.988447) (xy -4.093079 -5.121083) (xy -4.155008 -5.171635)
     (xy -4.232030 -5.151091) (xy -4.307230 -5.102146) (xy -4.445941 -5.050518) (xy -4.570232 -5.080398) (xy -4.648981 -5.184111) (xy -4.649799 -5.186637) (xy -4.640980 -5.306554) (xy -4.553184 -5.419827)
     (xy -4.409015 -5.517854) (xy -4.231077 -5.592033) (xy -4.041973 -5.633761) (xy -3.864308 -5.634435) (xy -3.720687 -5.585454) )(layer F.SilkS) (width  0.010000)
  )
  (fp_poly (pts (xy -3.335158 -7.022160) (xy -3.238583 -6.931151) (xy -3.200400 -6.832600) (xy -3.243292 -6.715709) (xy -3.347226 -6.637259) (xy -3.475094 -6.612948) (xy -3.589789 -6.658477) (xy -3.596640 -6.664960)
     (xy -3.656282 -6.782731) (xy -3.643278 -6.911632) (xy -3.570926 -7.016244) (xy -3.452525 -7.061146) (xy -3.447869 -7.061200) (xy -3.335158 -7.022160) )(layer F.SilkS) (width  0.010000)
  )
  (fp_poly (pts (xy -2.189474 -7.337474) (xy -2.158794 -7.324350) (xy -2.054172 -7.230298) (xy -2.036142 -7.085942) (xy -2.062836 -6.989155) (xy -2.132669 -6.929529) (xy -2.251117 -6.910246) (xy -2.372537 -6.933727)
     (xy -2.428240 -6.969760) (xy -2.485716 -7.087751) (xy -2.449446 -7.217819) (xy -2.387394 -7.289987) (xy -2.291226 -7.351541) (xy -2.189474 -7.337474) )(layer F.SilkS) (width  0.010000)
  )
)
