(module Female_pinheader_2.54_1x16 (layer F.Cu) (tedit 61A4E7CF)
  (fp_text reference REF* (at -2.54 1.016) (layer F.SilkS)
    (effects (font (size 1 1) (thickness 0.15)))
  )
  (fp_text value Female_pinheader_2.54_1x16 (at 0 -0.5) (layer F.Fab)
    (effects (font (size 1 1) (thickness 0.15)))
  )
  (fp_line (start -1.016 1.016) (end 1.016 1.016) (layer F.SilkS) (width 0.12))
  (fp_line (start 1.016 1.016) (end 1.016 41.148) (layer F.SilkS) (width 0.12))
  (fp_line (start 1.016 41.148) (end -1.016 41.148) (layer F.SilkS) (width 0.12))
  (fp_line (start -1.016 41.148) (end -1.016 1.016) (layer F.SilkS) (width 0.12))
  (pad 1 thru_hole rect (at 0 2.032) (size 1.524 1.524) (drill 1) (layers *.Cu *.Mask))
  (pad 2 thru_hole circle (at 0 4.572) (size 1.524 1.524) (drill 1) (layers *.Cu *.Mask))
  (pad 3 thru_hole circle (at 0 7.112) (size 1.524 1.524) (drill 1) (layers *.Cu *.Mask))
  (pad 4 thru_hole circle (at 0 9.652) (size 1.524 1.524) (drill 1) (layers *.Cu *.Mask))
  (pad 5 thru_hole circle (at 0 12.192) (size 1.524 1.524) (drill 1) (layers *.Cu *.Mask))
  (pad 6 thru_hole circle (at 0 14.732) (size 1.524 1.524) (drill 1) (layers *.Cu *.Mask))
  (pad 7 thru_hole circle (at 0 17.272) (size 1.524 1.524) (drill 1) (layers *.Cu *.Mask))
  (pad 8 thru_hole circle (at 0 19.812) (size 1.524 1.524) (drill 1) (layers *.Cu *.Mask))
  (pad 9 thru_hole circle (at 0 22.352) (size 1.524 1.524) (drill 1) (layers *.Cu *.Mask))
  (pad 10 thru_hole circle (at 0 24.892) (size 1.524 1.524) (drill 1) (layers *.Cu *.Mask))
  (pad 11 thru_hole circle (at 0 27.432) (size 1.524 1.524) (drill 1) (layers *.Cu *.Mask))
  (pad 12 thru_hole circle (at 0 29.972) (size 1.524 1.524) (drill 1) (layers *.Cu *.Mask))
  (pad 13 thru_hole circle (at 0 32.512) (size 1.524 1.524) (drill 1) (layers *.Cu *.Mask))
  (pad 14 thru_hole circle (at 0 35.052) (size 1.524 1.524) (drill 1) (layers *.Cu *.Mask))
  (pad 15 thru_hole circle (at 0 37.592) (size 1.524 1.524) (drill 1) (layers *.Cu *.Mask))
  (pad 16 thru_hole circle (at 0 40.132) (size 1.524 1.524) (drill 1) (layers *.Cu *.Mask))
)
